[
{
  "Time": "2024-07-26T22:27:29.9839498-04:00",
  "Group": "Plugin",
  "Message": "Loading plugin 'HawkuFilters'",
  "StackTrace": null,
  "Level": 0,
  "Notification": false
},
{
  "Time": "2024-07-26T22:27:30.0033047-04:00",
  "Group": "Detect",
  "Message": "Searching for tablets...",
  "StackTrace": null,
  "Level": 1,
  "Notification": false
},
{
  "Time": "2024-07-26T22:27:30.0125062-04:00",
  "Group": "Detect",
  "Message": "Searching for tablet '10moon 1060N'",
  "StackTrace": null,
  "Level": 0,
  "Notification": false
},
{
  "Time": "2024-07-26T22:27:30.0134429-04:00",
  "Group": "Detect",
  "Message": "Searching for tablet 'Acepen AP 1060'",
  "StackTrace": null,
  "Level": 0,
  "Notification": false
},
{
  "Time": "2024-07-26T22:27:30.0134699-04:00",
  "Group": "Detect",
  "Message": "Searching for tablet 'Adesso Cybertablet K8'",
  "StackTrace": null,
  "Level": 0,
  "Notification": false
},
{
  "Time": "2024-07-26T22:27:30.0134805-04:00",
  "Group": "Detect",
  "Message": "Searching for tablet 'Artisul A1201'",
  "StackTrace": null,
  "Level": 0,
  "Notification": false
},
{
  "Time": "2024-07-26T22:27:30.0134942-04:00",
  "Group": "Detect",
  "Message": "Searching for tablet 'Artisul AP604'",
  "StackTrace": null,
  "Level": 0,
  "Notification": false
},
{
  "Time": "2024-07-26T22:27:30.013503-04:00",
  "Group": "Detect",
  "Message": "Searching for tablet 'Artisul M0610 Pro'",
  "StackTrace": null,
  "Level": 0,
  "Notification": false
},
{
  "Time": "2024-07-26T22:27:30.0135115-04:00",
  "Group": "Detect",
  "Message": "Searching for tablet 'FlooGoo FMA100'",
  "StackTrace": null,
  "Level": 0,
  "Notification": false
},
{
  "Time": "2024-07-26T22:27:30.01352-04:00",
  "Group": "Detect",
  "Message": "Searching for tablet 'Gaomon 1060 Pro'",
  "StackTrace": null,
  "Level": 0,
  "Notification": false
},
{
  "Time": "2024-07-26T22:27:30.0135347-04:00",
  "Group": "Detect",
  "Message": "Searching for tablet 'Gaomon GM116HD'",
  "StackTrace": null,
  "Level": 0,
  "Notification": false
},
{
  "Time": "2024-07-26T22:27:30.0135523-04:00",
  "Group": "Detect",
  "Message": "Searching for tablet 'Gaomon GM156HD'",
  "StackTrace": null,
  "Level": 0,
  "Notification": false
},
{
  "Time": "2024-07-26T22:27:30.0135614-04:00",
  "Group": "Detect",
  "Message": "Searching for tablet 'Gaomon M106K Pro'",
  "StackTrace": null,
  "Level": 0,
  "Notification": false
},
{
  "Time": "2024-07-26T22:27:30.0135713-04:00",
  "Group": "Detect",
  "Message": "Searching for tablet 'Gaomon M106K'",
  "StackTrace": null,
  "Level": 0,
  "Notification": false
},
{
  "Time": "2024-07-26T22:27:30.0135825-04:00",
  "Group": "Detect",
  "Message": "Searching for tablet 'Gaomon M10K Pro'",
  "StackTrace": null,
  "Level": 0,
  "Notification": false
},
{
  "Time": "2024-07-26T22:27:30.0135913-04:00",
  "Group": "Detect",
  "Message": "Searching for tablet 'Gaomon M10K'",
  "StackTrace": null,
  "Level": 0,
  "Notification": false
},
{
  "Time": "2024-07-26T22:27:30.0135998-04:00",
  "Group": "Detect",
  "Message": "Searching for tablet 'Gaomon M1220'",
  "StackTrace": null,
  "Level": 0,
  "Notification": false
},
{
  "Time": "2024-07-26T22:27:30.0136082-04:00",
  "Group": "Detect",
  "Message": "Searching for tablet 'Gaomon M1230'",
  "StackTrace": null,
  "Level": 0,
  "Notification": false
},
{
  "Time": "2024-07-26T22:27:30.0136221-04:00",
  "Group": "Detect",
  "Message": "Searching for tablet 'Gaomon M6'",
  "StackTrace": null,
  "Level": 0,
  "Notification": false
},
{
  "Time": "2024-07-26T22:27:30.0136316-04:00",
  "Group": "Detect",
  "Message": "Searching for tablet 'Gaomon PD1161'",
  "StackTrace": null,
  "Level": 0,
  "Notification": false
},
{
  "Time": "2024-07-26T22:27:30.0136425-04:00",
  "Group": "Detect",
  "Message": "Searching for tablet 'Gaomon PD156 Pro'",
  "StackTrace": null,
  "Level": 0,
  "Notification": false
},
{
  "Time": "2024-07-26T22:27:30.0136512-04:00",
  "Group": "Detect",
  "Message": "Searching for tablet 'Gaomon PD1560'",
  "StackTrace": null,
  "Level": 0,
  "Notification": false
},
{
  "Time": "2024-07-26T22:27:30.0136596-04:00",
  "Group": "Detect",
  "Message": "Searching for tablet 'Gaomon PD1561'",
  "StackTrace": null,
  "Level": 0,
  "Notification": false
},
{
  "Time": "2024-07-26T22:27:30.0136754-04:00",
  "Group": "Detect",
  "Message": "Searching for tablet 'Gaomon PD2200'",
  "StackTrace": null,
  "Level": 0,
  "Notification": false
},
{
  "Time": "2024-07-26T22:27:30.0136875-04:00",
  "Group": "Detect",
  "Message": "Searching for tablet 'Gaomon S56K'",
  "StackTrace": null,
  "Level": 0,
  "Notification": false
},
{
  "Time": "2024-07-26T22:27:30.0136982-04:00",
  "Group": "Detect",
  "Message": "Searching for tablet 'Gaomon S620'",
  "StackTrace": null,
  "Level": 0,
  "Notification": false
},
{
  "Time": "2024-07-26T22:27:30.013715-04:00",
  "Group": "Detect",
  "Message": "Searching for tablet 'Gaomon S630'",
  "StackTrace": null,
  "Level": 0,
  "Notification": false
},
{
  "Time": "2024-07-26T22:27:30.0137236-04:00",
  "Group": "Detect",
  "Message": "Searching for tablet 'Gaomon S830'",
  "StackTrace": null,
  "Level": 0,
  "Notification": false
},
{
  "Time": "2024-07-26T22:27:30.0137318-04:00",
  "Group": "Detect",
  "Message": "Searching for tablet 'Genius G-Pen 560'",
  "StackTrace": null,
  "Level": 0,
  "Notification": false
},
{
  "Time": "2024-07-26T22:27:30.0137433-04:00",
  "Group": "Detect",
  "Message": "Searching for tablet 'Genius i405x'",
  "StackTrace": null,
  "Level": 0,
  "Notification": false
},
{
  "Time": "2024-07-26T22:27:30.0137523-04:00",
  "Group": "Detect",
  "Message": "Searching for tablet 'Genius i608x'",
  "StackTrace": null,
  "Level": 0,
  "Notification": false
},
{
  "Time": "2024-07-26T22:27:30.0137605-04:00",
  "Group": "Detect",
  "Message": "Searching for tablet 'Huion 420'",
  "StackTrace": null,
  "Level": 0,
  "Notification": false
},
{
  "Time": "2024-07-26T22:27:30.0137723-04:00",
  "Group": "Detect",
  "Message": "Searching for tablet 'Huion G10T'",
  "StackTrace": null,
  "Level": 0,
  "Notification": false
},
{
  "Time": "2024-07-26T22:27:30.0137807-04:00",
  "Group": "Detect",
  "Message": "Searching for tablet 'Huion G930L'",
  "StackTrace": null,
  "Level": 0,
  "Notification": false
},
{
  "Time": "2024-07-26T22:27:30.0137893-04:00",
  "Group": "Detect",
  "Message": "Searching for tablet 'Huion GC610'",
  "StackTrace": null,
  "Level": 0,
  "Notification": false
},
{
  "Time": "2024-07-26T22:27:30.0138012-04:00",
  "Group": "Detect",
  "Message": "Searching for tablet 'Huion GT-220 V2'",
  "StackTrace": null,
  "Level": 0,
  "Notification": false
},
{
  "Time": "2024-07-26T22:27:30.0138098-04:00",
  "Group": "Detect",
  "Message": "Searching for tablet 'Huion GT-221 Pro'",
  "StackTrace": null,
  "Level": 0,
  "Notification": false
},
{
  "Time": "2024-07-26T22:27:30.0138184-04:00",
  "Group": "Detect",
  "Message": "Searching for tablet 'Huion GT-221'",
  "StackTrace": null,
  "Level": 0,
  "Notification": false
},
{
  "Time": "2024-07-26T22:27:30.0138267-04:00",
  "Group": "Detect",
  "Message": "Searching for tablet 'Huion H1060P'",
  "StackTrace": null,
  "Level": 0,
  "Notification": false
},
{
  "Time": "2024-07-26T22:27:30.013846-04:00",
  "Group": "Detect",
  "Message": "Searching for tablet 'Huion H1161'",
  "StackTrace": null,
  "Level": 0,
  "Notification": false
},
{
  "Time": "2024-07-26T22:27:30.0138555-04:00",
  "Group": "Detect",
  "Message": "Searching for tablet 'Huion H320M'",
  "StackTrace": null,
  "Level": 0,
  "Notification": false
},
{
  "Time": "2024-07-26T22:27:30.0138677-04:00",
  "Group": "Detect",
  "Message": "Searching for tablet 'Huion H420'",
  "StackTrace": null,
  "Level": 0,
  "Notification": false
},
{
  "Time": "2024-07-26T22:27:30.013876-04:00",
  "Group": "Detect",
  "Message": "Searching for tablet 'Huion H420X'",
  "StackTrace": null,
  "Level": 0,
  "Notification": false
},
{
  "Time": "2024-07-26T22:27:30.0138888-04:00",
  "Group": "Detect",
  "Message": "Searching for tablet 'Huion H430P'",
  "StackTrace": null,
  "Level": 0,
  "Notification": false
},
{
  "Time": "2024-07-26T22:27:30.0139005-04:00",
  "Group": "Detect",
  "Message": "Searching for tablet 'Huion H580X'",
  "StackTrace": null,
  "Level": 0,
  "Notification": false
},
{
  "Time": "2024-07-26T22:27:30.0139113-04:00",
  "Group": "Detect",
  "Message": "Searching for tablet 'Huion H610 Pro V2'",
  "StackTrace": null,
  "Level": 0,
  "Notification": false
},
{
  "Time": "2024-07-26T22:27:30.0139222-04:00",
  "Group": "Detect",
  "Message": "Searching for tablet 'Huion H610 Pro V3'",
  "StackTrace": null,
  "Level": 0,
  "Notification": false
},
{
  "Time": "2024-07-26T22:27:30.0139334-04:00",
  "Group": "Detect",
  "Message": "Searching for tablet 'Huion H610 Pro'",
  "StackTrace": null,
  "Level": 0,
  "Notification": false
},
{
  "Time": "2024-07-26T22:27:30.0139428-04:00",
  "Group": "Detect",
  "Message": "Searching for tablet 'Huion H610X'",
  "StackTrace": null,
  "Level": 0,
  "Notification": false
},
{
  "Time": "2024-07-26T22:27:30.0139547-04:00",
  "Group": "Detect",
  "Message": "Searching for tablet 'Huion H640P'",
  "StackTrace": null,
  "Level": 0,
  "Notification": false
},
{
  "Time": "2024-07-26T22:27:30.0139664-04:00",
  "Group": "Detect",
  "Message": "Searching for tablet 'Huion H641P'",
  "StackTrace": null,
  "Level": 0,
  "Notification": false
},
{
  "Time": "2024-07-26T22:27:30.0139772-04:00",
  "Group": "Detect",
  "Message": "Searching for tablet 'Huion H642'",
  "StackTrace": null,
  "Level": 0,
  "Notification": false
},
{
  "Time": "2024-07-26T22:27:30.0139854-04:00",
  "Group": "Detect",
  "Message": "Searching for tablet 'Huion H690'",
  "StackTrace": null,
  "Level": 0,
  "Notification": false
},
{
  "Time": "2024-07-26T22:27:30.0139948-04:00",
  "Group": "Detect",
  "Message": "Searching for tablet 'Huion H950P'",
  "StackTrace": null,
  "Level": 0,
  "Notification": false
},
{
  "Time": "2024-07-26T22:27:30.0140079-04:00",
  "Group": "Detect",
  "Message": "Searching for tablet 'Huion HC16'",
  "StackTrace": null,
  "Level": 0,
  "Notification": false
},
{
  "Time": "2024-07-26T22:27:30.0140173-04:00",
  "Group": "Detect",
  "Message": "Searching for tablet 'Huion HS610'",
  "StackTrace": null,
  "Level": 0,
  "Notification": false
},
{
  "Time": "2024-07-26T22:27:30.0140311-04:00",
  "Group": "Detect",
  "Message": "Searching for tablet 'Huion HS611'",
  "StackTrace": null,
  "Level": 0,
  "Notification": false
},
{
  "Time": "2024-07-26T22:27:30.0140418-04:00",
  "Group": "Detect",
  "Message": "Searching for tablet 'Huion HS64'",
  "StackTrace": null,
  "Level": 0,
  "Notification": false
},
{
  "Time": "2024-07-26T22:27:30.0140529-04:00",
  "Group": "Detect",
  "Message": "Searching for tablet 'Huion HS95'",
  "StackTrace": null,
  "Level": 0,
  "Notification": false
},
{
  "Time": "2024-07-26T22:27:30.0140614-04:00",
  "Group": "Detect",
  "Message": "Searching for tablet 'Huion Kamvas 12'",
  "StackTrace": null,
  "Level": 0,
  "Notification": false
},
{
  "Time": "2024-07-26T22:27:30.0140698-04:00",
  "Group": "Detect",
  "Message": "Searching for tablet 'Huion Kamvas 13'",
  "StackTrace": null,
  "Level": 0,
  "Notification": false
},
{
  "Time": "2024-07-26T22:27:30.0140809-04:00",
  "Group": "Detect",
  "Message": "Searching for tablet 'Huion Kamvas 16 (2021)'",
  "StackTrace": null,
  "Level": 0,
  "Notification": false
},
{
  "Time": "2024-07-26T22:27:30.0140902-04:00",
  "Group": "Detect",
  "Message": "Searching for tablet 'Huion Kamvas 16'",
  "StackTrace": null,
  "Level": 0,
  "Notification": false
},
{
  "Time": "2024-07-26T22:27:30.0140986-04:00",
  "Group": "Detect",
  "Message": "Searching for tablet 'Huion Kamvas 20'",
  "StackTrace": null,
  "Level": 0,
  "Notification": false
},
{
  "Time": "2024-07-26T22:27:30.0141072-04:00",
  "Group": "Detect",
  "Message": "Searching for tablet 'Huion Kamvas 22 Plus'",
  "StackTrace": null,
  "Level": 0,
  "Notification": false
},
{
  "Time": "2024-07-26T22:27:30.0141188-04:00",
  "Group": "Detect",
  "Message": "Searching for tablet 'Huion Kamvas 22'",
  "StackTrace": null,
  "Level": 0,
  "Notification": false
},
{
  "Time": "2024-07-26T22:27:30.0141276-04:00",
  "Group": "Detect",
  "Message": "Searching for tablet 'Huion Kamvas 24 Plus'",
  "StackTrace": null,
  "Level": 0,
  "Notification": false
},
{
  "Time": "2024-07-26T22:27:30.0141365-04:00",
  "Group": "Detect",
  "Message": "Searching for tablet 'Huion Kamvas Pro 12'",
  "StackTrace": null,
  "Level": 0,
  "Notification": false
},
{
  "Time": "2024-07-26T22:27:30.0141453-04:00",
  "Group": "Detect",
  "Message": "Searching for tablet 'Huion Kamvas Pro 13 (2.5k)'",
  "StackTrace": null,
  "Level": 0,
  "Notification": false
},
{
  "Time": "2024-07-26T22:27:30.0141619-04:00",
  "Group": "Detect",
  "Message": "Searching for tablet 'Huion Kamvas Pro 13'",
  "StackTrace": null,
  "Level": 0,
  "Notification": false
},
{
  "Time": "2024-07-26T22:27:30.0141718-04:00",
  "Group": "Detect",
  "Message": "Searching for tablet 'Huion Kamvas Pro 16 (2.5k)'",
  "StackTrace": null,
  "Level": 0,
  "Notification": false
},
{
  "Time": "2024-07-26T22:27:30.0141848-04:00",
  "Group": "Detect",
  "Message": "Searching for tablet 'Huion Kamvas Pro 16'",
  "StackTrace": null,
  "Level": 0,
  "Notification": false
},
{
  "Time": "2024-07-26T22:27:30.0141947-04:00",
  "Group": "Detect",
  "Message": "Searching for tablet 'Huion Kamvas Pro 20'",
  "StackTrace": null,
  "Level": 0,
  "Notification": false
},
{
  "Time": "2024-07-26T22:27:30.0142036-04:00",
  "Group": "Detect",
  "Message": "Searching for tablet 'Huion Kamvas Pro 24 (4K)'",
  "StackTrace": null,
  "Level": 0,
  "Notification": false
},
{
  "Time": "2024-07-26T22:27:30.0142157-04:00",
  "Group": "Detect",
  "Message": "Searching for tablet 'Huion Kamvas Pro 24'",
  "StackTrace": null,
  "Level": 0,
  "Notification": false
},
{
  "Time": "2024-07-26T22:27:30.0142247-04:00",
  "Group": "Detect",
  "Message": "Searching for tablet 'Huion New 1060 Plus (2048)'",
  "StackTrace": null,
  "Level": 0,
  "Notification": false
},
{
  "Time": "2024-07-26T22:27:30.0142349-04:00",
  "Group": "Detect",
  "Message": "Searching for tablet 'Huion New 1060 Plus'",
  "StackTrace": null,
  "Level": 0,
  "Notification": false
},
{
  "Time": "2024-07-26T22:27:30.0142549-04:00",
  "Group": "Detect",
  "Message": "Searching for tablet 'Huion Q11K V2'",
  "StackTrace": null,
  "Level": 0,
  "Notification": false
},
{
  "Time": "2024-07-26T22:27:30.0142637-04:00",
  "Group": "Detect",
  "Message": "Searching for tablet 'Huion Q11K'",
  "StackTrace": null,
  "Level": 0,
  "Notification": false
},
{
  "Time": "2024-07-26T22:27:30.0142801-04:00",
  "Group": "Detect",
  "Message": "Searching for tablet 'Huion Q620M'",
  "StackTrace": null,
  "Level": 0,
  "Notification": false
},
{
  "Time": "2024-07-26T22:27:30.0142889-04:00",
  "Group": "Detect",
  "Message": "Searching for tablet 'Huion Q630M'",
  "StackTrace": null,
  "Level": 0,
  "Notification": false
},
{
  "Time": "2024-07-26T22:27:30.0142972-04:00",
  "Group": "Detect",
  "Message": "Searching for tablet 'Huion RDS-160'",
  "StackTrace": null,
  "Level": 0,
  "Notification": false
},
{
  "Time": "2024-07-26T22:27:30.0143056-04:00",
  "Group": "Detect",
  "Message": "Searching for tablet 'Huion RTE-100'",
  "StackTrace": null,
  "Level": 0,
  "Notification": false
},
{
  "Time": "2024-07-26T22:27:30.0143169-04:00",
  "Group": "Detect",
  "Message": "Searching for tablet 'Huion RTM-500'",
  "StackTrace": null,
  "Level": 0,
  "Notification": false
},
{
  "Time": "2024-07-26T22:27:30.0143266-04:00",
  "Group": "Detect",
  "Message": "Searching for tablet 'Huion WH1409 V2'",
  "StackTrace": null,
  "Level": 0,
  "Notification": false
},
{
  "Time": "2024-07-26T22:27:30.0143354-04:00",
  "Group": "Detect",
  "Message": "Searching for tablet 'Huion WH1409'",
  "StackTrace": null,
  "Level": 0,
  "Notification": false
},
{
  "Time": "2024-07-26T22:27:30.0143466-04:00",
  "Group": "Detect",
  "Message": "Searching for tablet 'KENTING K5540'",
  "StackTrace": null,
  "Level": 0,
  "Notification": false
},
{
  "Time": "2024-07-26T22:27:30.0143554-04:00",
  "Group": "Detect",
  "Message": "Searching for tablet 'LifeTec LT9570'",
  "StackTrace": null,
  "Level": 0,
  "Notification": false
},
{
  "Time": "2024-07-26T22:27:30.0143644-04:00",
  "Group": "Detect",
  "Message": "Searching for tablet 'Monoprice 10594'",
  "StackTrace": null,
  "Level": 0,
  "Notification": false
},
{
  "Time": "2024-07-26T22:27:30.0143756-04:00",
  "Group": "Detect",
  "Message": "Searching for tablet 'Monoprice MP1060-HA60'",
  "StackTrace": null,
  "Level": 0,
  "Notification": false
},
{
  "Time": "2024-07-26T22:27:30.0143846-04:00",
  "Group": "Detect",
  "Message": "Searching for tablet 'Parblo A609'",
  "StackTrace": null,
  "Level": 0,
  "Notification": false
},
{
  "Time": "2024-07-26T22:27:30.0143929-04:00",
  "Group": "Detect",
  "Message": "Searching for tablet 'Parblo A610 Pro'",
  "StackTrace": null,
  "Level": 0,
  "Notification": false
},
{
  "Time": "2024-07-26T22:27:30.0144013-04:00",
  "Group": "Detect",
  "Message": "Searching for tablet 'Parblo A640 V2'",
  "StackTrace": null,
  "Level": 0,
  "Notification": false
},
{
  "Time": "2024-07-26T22:27:30.0144147-04:00",
  "Group": "Detect",
  "Message": "Searching for tablet 'Parblo Intangbo M'",
  "StackTrace": null,
  "Level": 0,
  "Notification": false
},
{
  "Time": "2024-07-26T22:27:30.0144245-04:00",
  "Group": "Detect",
  "Message": "Searching for tablet 'Parblo Intangbo S'",
  "StackTrace": null,
  "Level": 0,
  "Notification": false
},
{
  "Time": "2024-07-26T22:27:30.0144371-04:00",
  "Group": "Detect",
  "Message": "Searching for tablet 'Parblo Ninos M'",
  "StackTrace": null,
  "Level": 0,
  "Notification": false
},
{
  "Time": "2024-07-26T22:27:30.0144471-04:00",
  "Group": "Detect",
  "Message": "Searching for tablet 'Parblo Ninos N4'",
  "StackTrace": null,
  "Level": 0,
  "Notification": false
},
{
  "Time": "2024-07-26T22:27:30.0144557-04:00",
  "Group": "Detect",
  "Message": "Searching for tablet 'Parblo Ninos N7'",
  "StackTrace": null,
  "Level": 0,
  "Notification": false
},
{
  "Time": "2024-07-26T22:27:30.0144686-04:00",
  "Group": "Detect",
  "Message": "Searching for tablet 'Parblo Ninos S'",
  "StackTrace": null,
  "Level": 0,
  "Notification": false
},
{
  "Time": "2024-07-26T22:27:30.0144784-04:00",
  "Group": "Detect",
  "Message": "Searching for tablet 'RobotPen T9A'",
  "StackTrace": null,
  "Level": 0,
  "Notification": false
},
{
  "Time": "2024-07-26T22:27:30.0144869-04:00",
  "Group": "Detect",
  "Message": "Searching for tablet 'UC-Logic 1060N'",
  "StackTrace": null,
  "Level": 0,
  "Notification": false
},
{
  "Time": "2024-07-26T22:27:30.0145001-04:00",
  "Group": "Detect",
  "Message": "Searching for tablet 'UC-Logic PF1209'",
  "StackTrace": null,
  "Level": 0,
  "Notification": false
},
{
  "Time": "2024-07-26T22:27:30.014509-04:00",
  "Group": "Detect",
  "Message": "Searching for tablet 'UGEE S640'",
  "StackTrace": null,
  "Level": 0,
  "Notification": false
},
{
  "Time": "2024-07-26T22:27:30.0145183-04:00",
  "Group": "Detect",
  "Message": "Searching for tablet 'UGEE U1200'",
  "StackTrace": null,
  "Level": 0,
  "Notification": false
},
{
  "Time": "2024-07-26T22:27:30.0145333-04:00",
  "Group": "Detect",
  "Message": "Searching for tablet 'UGEE U1600'",
  "StackTrace": null,
  "Level": 0,
  "Notification": false
},
{
  "Time": "2024-07-26T22:27:30.0145419-04:00",
  "Group": "Detect",
  "Message": "Searching for tablet 'UGTABLET M708 V2'",
  "StackTrace": null,
  "Level": 0,
  "Notification": false
},
{
  "Time": "2024-07-26T22:27:30.0145504-04:00",
  "Group": "Detect",
  "Message": "Searching for tablet 'UGTABLET M708'",
  "StackTrace": null,
  "Level": 0,
  "Notification": false
},
{
  "Time": "2024-07-26T22:27:30.0145614-04:00",
  "Group": "Detect",
  "Message": "Searching for tablet 'VEIKK A15 Pro'",
  "StackTrace": null,
  "Level": 0,
  "Notification": false
},
{
  "Time": "2024-07-26T22:27:30.014571-04:00",
  "Group": "Detect",
  "Message": "Searching for tablet 'VEIKK A15 V2'",
  "StackTrace": null,
  "Level": 0,
  "Notification": false
},
{
  "Time": "2024-07-26T22:27:30.0145794-04:00",
  "Group": "Detect",
  "Message": "Searching for tablet 'VEIKK A15'",
  "StackTrace": null,
  "Level": 0,
  "Notification": false
},
{
  "Time": "2024-07-26T22:27:30.0145903-04:00",
  "Group": "Detect",
  "Message": "Searching for tablet 'VEIKK A30 V2'",
  "StackTrace": null,
  "Level": 0,
  "Notification": false
},
{
  "Time": "2024-07-26T22:27:30.0145988-04:00",
  "Group": "Detect",
  "Message": "Searching for tablet 'VEIKK A30'",
  "StackTrace": null,
  "Level": 0,
  "Notification": false
},
{
  "Time": "2024-07-26T22:27:30.014607-04:00",
  "Group": "Detect",
  "Message": "Searching for tablet 'VEIKK A50 V2'",
  "StackTrace": null,
  "Level": 0,
  "Notification": false
},
{
  "Time": "2024-07-26T22:27:30.0146153-04:00",
  "Group": "Detect",
  "Message": "Searching for tablet 'VEIKK A50'",
  "StackTrace": null,
  "Level": 0,
  "Notification": false
},
{
  "Time": "2024-07-26T22:27:30.0146262-04:00",
  "Group": "Detect",
  "Message": "Searching for tablet 'VEIKK S640 V2'",
  "StackTrace": null,
  "Level": 0,
  "Notification": false
},
{
  "Time": "2024-07-26T22:27:30.0146347-04:00",
  "Group": "Detect",
  "Message": "Searching for tablet 'VEIKK S640'",
  "StackTrace": null,
  "Level": 0,
  "Notification": false
},
{
  "Time": "2024-07-26T22:27:30.0146431-04:00",
  "Group": "Detect",
  "Message": "Searching for tablet 'VEIKK VK1060'",
  "StackTrace": null,
  "Level": 0,
  "Notification": false
},
{
  "Time": "2024-07-26T22:27:30.0146514-04:00",
  "Group": "Detect",
  "Message": "Searching for tablet 'VEIKK VK1060PRO'",
  "StackTrace": null,
  "Level": 0,
  "Notification": false
},
{
  "Time": "2024-07-26T22:27:30.0146626-04:00",
  "Group": "Detect",
  "Message": "Searching for tablet 'VEIKK VK430 V2'",
  "StackTrace": null,
  "Level": 0,
  "Notification": false
},
{
  "Time": "2024-07-26T22:27:30.0146756-04:00",
  "Group": "Detect",
  "Message": "Searching for tablet 'VEIKK VK430'",
  "StackTrace": null,
  "Level": 0,
  "Notification": false
},
{
  "Time": "2024-07-26T22:27:30.014684-04:00",
  "Group": "Detect",
  "Message": "Searching for tablet 'VEIKK VK640'",
  "StackTrace": null,
  "Level": 0,
  "Notification": false
},
{
  "Time": "2024-07-26T22:27:30.0146973-04:00",
  "Group": "Detect",
  "Message": "Searching for tablet 'VEIKK Viola (VO1060)'",
  "StackTrace": null,
  "Level": 0,
  "Notification": false
},
{
  "Time": "2024-07-26T22:27:30.0147065-04:00",
  "Group": "Detect",
  "Message": "Searching for tablet 'ViewSonic Woodpad PF0730'",
  "StackTrace": null,
  "Level": 0,
  "Notification": false
},
{
  "Time": "2024-07-26T22:27:30.0147155-04:00",
  "Group": "Detect",
  "Message": "Searching for tablet 'Wacom CTC-4110WL'",
  "StackTrace": null,
  "Level": 0,
  "Notification": false
},
{
  "Time": "2024-07-26T22:27:30.0147242-04:00",
  "Group": "Detect",
  "Message": "Searching for tablet 'Wacom CTC-6110WL'",
  "StackTrace": null,
  "Level": 0,
  "Notification": false
},
{
  "Time": "2024-07-26T22:27:30.0147356-04:00",
  "Group": "Detect",
  "Message": "Searching for tablet 'Wacom CTE-430'",
  "StackTrace": null,
  "Level": 0,
  "Notification": false
},
{
  "Time": "2024-07-26T22:27:30.0148583-04:00",
  "Group": "Detect",
  "Message": "Searching for tablet 'Wacom CTE-440'",
  "StackTrace": null,
  "Level": 0,
  "Notification": false
},
{
  "Time": "2024-07-26T22:27:30.0148859-04:00",
  "Group": "Detect",
  "Message": "Searching for tablet 'Wacom CTE-450'",
  "StackTrace": null,
  "Level": 0,
  "Notification": false
},
{
  "Time": "2024-07-26T22:27:30.0148954-04:00",
  "Group": "Detect",
  "Message": "Searching for tablet 'Wacom CTE-460'",
  "StackTrace": null,
  "Level": 0,
  "Notification": false
},
{
  "Time": "2024-07-26T22:27:30.0149138-04:00",
  "Group": "Detect",
  "Message": "Searching for tablet 'Wacom CTE-630'",
  "StackTrace": null,
  "Level": 0,
  "Notification": false
},
{
  "Time": "2024-07-26T22:27:30.0149244-04:00",
  "Group": "Detect",
  "Message": "Searching for tablet 'Wacom CTE-640'",
  "StackTrace": null,
  "Level": 0,
  "Notification": false
},
{
  "Time": "2024-07-26T22:27:30.0149342-04:00",
  "Group": "Detect",
  "Message": "Searching for tablet 'Wacom CTE-650'",
  "StackTrace": null,
  "Level": 0,
  "Notification": false
},
{
  "Time": "2024-07-26T22:27:30.0149453-04:00",
  "Group": "Detect",
  "Message": "Searching for tablet 'Wacom CTE-660'",
  "StackTrace": null,
  "Level": 0,
  "Notification": false
},
{
  "Time": "2024-07-26T22:27:30.0149538-04:00",
  "Group": "Detect",
  "Message": "Searching for tablet 'Wacom CTF-430'",
  "StackTrace": null,
  "Level": 0,
  "Notification": false
},
{
  "Time": "2024-07-26T22:27:30.0149623-04:00",
  "Group": "Detect",
  "Message": "Searching for tablet 'Wacom CTH-301'",
  "StackTrace": null,
  "Level": 0,
  "Notification": false
},
{
  "Time": "2024-07-26T22:27:30.0149734-04:00",
  "Group": "Detect",
  "Message": "Searching for tablet 'Wacom CTH-460'",
  "StackTrace": null,
  "Level": 0,
  "Notification": false
},
{
  "Time": "2024-07-26T22:27:30.0149844-04:00",
  "Group": "Detect",
  "Message": "Searching for tablet 'Wacom CTH-461'",
  "StackTrace": null,
  "Level": 0,
  "Notification": false
},
{
  "Time": "2024-07-26T22:27:30.0149994-04:00",
  "Group": "Detect",
  "Message": "Searching for tablet 'Wacom CTH-470'",
  "StackTrace": null,
  "Level": 0,
  "Notification": false
},
{
  "Time": "2024-07-26T22:27:30.0150092-04:00",
  "Group": "Detect",
  "Message": "Searching for tablet 'Wacom CTH-480'",
  "StackTrace": null,
  "Level": 0,
  "Notification": false
},
{
  "Time": "2024-07-26T22:27:30.2500114-04:00",
  "Group": "Device",
  "Message": "Initializing device 'Intuos PTS' /sys/devices/pci0000:00/0000:00:01.2/0000:01:00.0/0000:02:08.0/0000:0a:00.3/usb3/3-4/3-4:1.0/0003:056A:0302.0004/hidraw/hidraw3",
  "StackTrace": null,
  "Level": 0,
  "Notification": false
},
{
  "Time": "2024-07-26T22:27:30.2500647-04:00",
  "Group": "Device",
  "Message": "Using report parser type 'OpenTabletDriver.Configurations.Parsers.Wacom.Intuos.IntuosReportParser'",
  "StackTrace": null,
  "Level": 0,
  "Notification": false
},
{
  "Time": "2024-07-26T22:27:30.2525645-04:00",
  "Group": "Device",
  "Message": "Set device feature: 02-02",
  "StackTrace": null,
  "Level": 0,
  "Notification": false
},
{
  "Time": "2024-07-26T22:27:30.2526954-04:00",
  "Group": "Detect",
  "Message": "Found tablet 'Wacom CTH-480'",
  "StackTrace": null,
  "Level": 1,
  "Notification": false
},
{
  "Time": "2024-07-26T22:27:30.3049898-04:00",
  "Group": "Device",
  "Message": "Initializing device 'Intuos PTS' /sys/devices/pci0000:00/0000:00:01.2/0000:01:00.0/0000:02:08.0/0000:0a:00.3/usb3/3-4/3-4:1.1/0003:056A:0302.0005/hidraw/hidraw4",
  "StackTrace": null,
  "Level": 0,
  "Notification": false
},
{
  "Time": "2024-07-26T22:27:30.3050476-04:00",
  "Group": "Device",
  "Message": "Using report parser type 'OpenTabletDriver.Configurations.Parsers.Wacom.Wacom64bAuxReportParser'",
  "StackTrace": null,
  "Level": 0,
  "Notification": false
},
{
  "Time": "2024-07-26T22:27:30.3063729-04:00",
  "Group": "Detect",
  "Message": "Searching for tablet 'Wacom CTH-490'",
  "StackTrace": null,
  "Level": 0,
  "Notification": false
},
{
  "Time": "2024-07-26T22:27:30.3064069-04:00",
  "Group": "Detect",
  "Message": "Searching for tablet 'Wacom CTH-661'",
  "StackTrace": null,
  "Level": 0,
  "Notification": false
},
{
  "Time": "2024-07-26T22:27:30.3064247-04:00",
  "Group": "Detect",
  "Message": "Searching for tablet 'Wacom CTH-670'",
  "StackTrace": null,
  "Level": 0,
  "Notification": false
},
{
  "Time": "2024-07-26T22:27:30.3064349-04:00",
  "Group": "Detect",
  "Message": "Searching for tablet 'Wacom CTH-680'",
  "StackTrace": null,
  "Level": 0,
  "Notification": false
},
{
  "Time": "2024-07-26T22:27:30.3064476-04:00",
  "Group": "Detect",
  "Message": "Searching for tablet 'Wacom CTH-690'",
  "StackTrace": null,
  "Level": 0,
  "Notification": false
},
{
  "Time": "2024-07-26T22:27:30.3064573-04:00",
  "Group": "Detect",
  "Message": "Searching for tablet 'Wacom CTL-4100'",
  "StackTrace": null,
  "Level": 0,
  "Notification": false
},
{
  "Time": "2024-07-26T22:27:30.3064742-04:00",
  "Group": "Detect",
  "Message": "Searching for tablet 'Wacom CTL-4100WL'",
  "StackTrace": null,
  "Level": 0,
  "Notification": false
},
{
  "Time": "2024-07-26T22:27:30.306493-04:00",
  "Group": "Detect",
  "Message": "Searching for tablet 'Wacom CTL-460'",
  "StackTrace": null,
  "Level": 0,
  "Notification": false
},
{
  "Time": "2024-07-26T22:27:30.3065028-04:00",
  "Group": "Detect",
  "Message": "Searching for tablet 'Wacom CTL-470'",
  "StackTrace": null,
  "Level": 0,
  "Notification": false
},
{
  "Time": "2024-07-26T22:27:30.3065175-04:00",
  "Group": "Detect",
  "Message": "Searching for tablet 'Wacom CTL-471'",
  "StackTrace": null,
  "Level": 0,
  "Notification": false
},
{
  "Time": "2024-07-26T22:27:30.3065272-04:00",
  "Group": "Detect",
  "Message": "Searching for tablet 'Wacom CTL-472'",
  "StackTrace": null,
  "Level": 0,
  "Notification": false
},
{
  "Time": "2024-07-26T22:27:30.3065394-04:00",
  "Group": "Detect",
  "Message": "Searching for tablet 'Wacom CTL-480'",
  "StackTrace": null,
  "Level": 0,
  "Notification": false
},
{
  "Time": "2024-07-26T22:27:30.3065492-04:00",
  "Group": "Detect",
  "Message": "Searching for tablet 'Wacom CTL-490'",
  "StackTrace": null,
  "Level": 0,
  "Notification": false
},
{
  "Time": "2024-07-26T22:27:30.3065615-04:00",
  "Group": "Detect",
  "Message": "Searching for tablet 'Wacom CTL-6100'",
  "StackTrace": null,
  "Level": 0,
  "Notification": false
},
{
  "Time": "2024-07-26T22:27:30.30657-04:00",
  "Group": "Detect",
  "Message": "Searching for tablet 'Wacom CTL-6100WL'",
  "StackTrace": null,
  "Level": 0,
  "Notification": false
},
{
  "Time": "2024-07-26T22:27:30.3065799-04:00",
  "Group": "Detect",
  "Message": "Searching for tablet 'Wacom CTL-671'",
  "StackTrace": null,
  "Level": 0,
  "Notification": false
},
{
  "Time": "2024-07-26T22:27:30.3065922-04:00",
  "Group": "Detect",
  "Message": "Searching for tablet 'Wacom CTL-672'",
  "StackTrace": null,
  "Level": 0,
  "Notification": false
},
{
  "Time": "2024-07-26T22:27:30.3066019-04:00",
  "Group": "Detect",
  "Message": "Searching for tablet 'Wacom CTL-680'",
  "StackTrace": null,
  "Level": 0,
  "Notification": false
},
{
  "Time": "2024-07-26T22:27:30.3066144-04:00",
  "Group": "Detect",
  "Message": "Searching for tablet 'Wacom CTL-690'",
  "StackTrace": null,
  "Level": 0,
  "Notification": false
},
{
  "Time": "2024-07-26T22:27:30.3066241-04:00",
  "Group": "Detect",
  "Message": "Searching for tablet 'Wacom DTC-133'",
  "StackTrace": null,
  "Level": 0,
  "Notification": false
},
{
  "Time": "2024-07-26T22:27:30.3066364-04:00",
  "Group": "Detect",
  "Message": "Searching for tablet 'Wacom DTH-1320'",
  "StackTrace": null,
  "Level": 0,
  "Notification": false
},
{
  "Time": "2024-07-26T22:27:30.306645-04:00",
  "Group": "Detect",
  "Message": "Searching for tablet 'Wacom Cintiq 13HD (DTK-1300)'",
  "StackTrace": null,
  "Level": 0,
  "Notification": false
},
{
  "Time": "2024-07-26T22:27:30.3066545-04:00",
  "Group": "Detect",
  "Message": "Searching for tablet 'Wacom Cintiq 16 (DTK1660)'",
  "StackTrace": null,
  "Level": 0,
  "Notification": false
},
{
  "Time": "2024-07-26T22:27:30.3066713-04:00",
  "Group": "Detect",
  "Message": "Searching for tablet 'Wacom Cintiq 12WX (DTZ-1200W)'",
  "StackTrace": null,
  "Level": 0,
  "Notification": false
},
{
  "Time": "2024-07-26T22:27:30.3066813-04:00",
  "Group": "Detect",
  "Message": "Searching for tablet 'Wacom ET-0405-U'",
  "StackTrace": null,
  "Level": 0,
  "Notification": false
},
{
  "Time": "2024-07-26T22:27:30.306691-04:00",
  "Group": "Detect",
  "Message": "Searching for tablet 'Wacom ET-0405A-U'",
  "StackTrace": null,
  "Level": 0,
  "Notification": false
},
{
  "Time": "2024-07-26T22:27:30.3067035-04:00",
  "Group": "Detect",
  "Message": "Searching for tablet 'Wacom FT-0405-U'",
  "StackTrace": null,
  "Level": 0,
  "Notification": false
},
{
  "Time": "2024-07-26T22:27:30.3067134-04:00",
  "Group": "Detect",
  "Message": "Searching for tablet 'Wacom GD-0405-U'",
  "StackTrace": null,
  "Level": 0,
  "Notification": false
},
{
  "Time": "2024-07-26T22:27:30.3067257-04:00",
  "Group": "Detect",
  "Message": "Searching for tablet 'Wacom GD-0608-U'",
  "StackTrace": null,
  "Level": 0,
  "Notification": false
},
{
  "Time": "2024-07-26T22:27:30.3067355-04:00",
  "Group": "Detect",
  "Message": "Searching for tablet 'Wacom GD-0912-U'",
  "StackTrace": null,
  "Level": 0,
  "Notification": false
},
{
  "Time": "2024-07-26T22:27:30.3067479-04:00",
  "Group": "Detect",
  "Message": "Searching for tablet 'Wacom GD-1212-U'",
  "StackTrace": null,
  "Level": 0,
  "Notification": false
},
{
  "Time": "2024-07-26T22:27:30.3067576-04:00",
  "Group": "Detect",
  "Message": "Searching for tablet 'Wacom GD-1218-U'",
  "StackTrace": null,
  "Level": 0,
  "Notification": false
},
{
  "Time": "2024-07-26T22:27:30.3067699-04:00",
  "Group": "Detect",
  "Message": "Searching for tablet 'Wacom MTE-450'",
  "StackTrace": null,
  "Level": 0,
  "Notification": false
},
{
  "Time": "2024-07-26T22:27:30.30678-04:00",
  "Group": "Detect",
  "Message": "Searching for tablet 'Wacom PTH-450'",
  "StackTrace": null,
  "Level": 0,
  "Notification": false
},
{
  "Time": "2024-07-26T22:27:30.3067924-04:00",
  "Group": "Detect",
  "Message": "Searching for tablet 'Wacom PTH-451'",
  "StackTrace": null,
  "Level": 0,
  "Notification": false
},
{
  "Time": "2024-07-26T22:27:30.3068026-04:00",
  "Group": "Detect",
  "Message": "Searching for tablet 'Wacom PTH-460'",
  "StackTrace": null,
  "Level": 0,
  "Notification": false
},
{
  "Time": "2024-07-26T22:27:30.3068147-04:00",
  "Group": "Detect",
  "Message": "Searching for tablet 'Wacom PTH-650'",
  "StackTrace": null,
  "Level": 0,
  "Notification": false
},
{
  "Time": "2024-07-26T22:27:30.3068245-04:00",
  "Group": "Detect",
  "Message": "Searching for tablet 'Wacom PTH-651'",
  "StackTrace": null,
  "Level": 0,
  "Notification": false
},
{
  "Time": "2024-07-26T22:27:30.3068344-04:00",
  "Group": "Detect",
  "Message": "Searching for tablet 'Wacom PTH-660'",
  "StackTrace": null,
  "Level": 0,
  "Notification": false
},
{
  "Time": "2024-07-26T22:27:30.3068468-04:00",
  "Group": "Detect",
  "Message": "Searching for tablet 'Wacom PTH-850'",
  "StackTrace": null,
  "Level": 0,
  "Notification": false
},
{
  "Time": "2024-07-26T22:27:30.3068564-04:00",
  "Group": "Detect",
  "Message": "Searching for tablet 'Wacom PTH-851'",
  "StackTrace": null,
  "Level": 0,
  "Notification": false
},
{
  "Time": "2024-07-26T22:27:30.3068687-04:00",
  "Group": "Detect",
  "Message": "Searching for tablet 'Wacom PTH-860'",
  "StackTrace": null,
  "Level": 0,
  "Notification": false
},
{
  "Time": "2024-07-26T22:27:30.3068787-04:00",
  "Group": "Detect",
  "Message": "Searching for tablet 'Wacom PTK-1240'",
  "StackTrace": null,
  "Level": 0,
  "Notification": false
},
{
  "Time": "2024-07-26T22:27:30.3068912-04:00",
  "Group": "Detect",
  "Message": "Searching for tablet 'Wacom PTK-440'",
  "StackTrace": null,
  "Level": 0,
  "Notification": false
},
{
  "Time": "2024-07-26T22:27:30.3069009-04:00",
  "Group": "Detect",
  "Message": "Searching for tablet 'Wacom PTK-450'",
  "StackTrace": null,
  "Level": 0,
  "Notification": false
},
{
  "Time": "2024-07-26T22:27:30.3069215-04:00",
  "Group": "Detect",
  "Message": "Searching for tablet 'Wacom PTK-540WL'",
  "StackTrace": null,
  "Level": 0,
  "Notification": false
},
{
  "Time": "2024-07-26T22:27:30.306932-04:00",
  "Group": "Detect",
  "Message": "Searching for tablet 'Wacom PTK-640'",
  "StackTrace": null,
  "Level": 0,
  "Notification": false
},
{
  "Time": "2024-07-26T22:27:30.3069444-04:00",
  "Group": "Detect",
  "Message": "Searching for tablet 'Wacom PTK-650'",
  "StackTrace": null,
  "Level": 0,
  "Notification": false
},
{
  "Time": "2024-07-26T22:27:30.3069544-04:00",
  "Group": "Detect",
  "Message": "Searching for tablet 'Wacom PTK-840'",
  "StackTrace": null,
  "Level": 0,
  "Notification": false
},
{
  "Time": "2024-07-26T22:27:30.3069641-04:00",
  "Group": "Detect",
  "Message": "Searching for tablet 'Wacom PTU-600U'",
  "StackTrace": null,
  "Level": 0,
  "Notification": false
},
{
  "Time": "2024-07-26T22:27:30.3069754-04:00",
  "Group": "Detect",
  "Message": "Searching for tablet 'Wacom PTZ-1230'",
  "StackTrace": null,
  "Level": 0,
  "Notification": false
},
{
  "Time": "2024-07-26T22:27:30.3069855-04:00",
  "Group": "Detect",
  "Message": "Searching for tablet 'Wacom PTZ-1231W'",
  "StackTrace": null,
  "Level": 0,
  "Notification": false
},
{
  "Time": "2024-07-26T22:27:30.3069982-04:00",
  "Group": "Detect",
  "Message": "Searching for tablet 'Wacom PTZ-430'",
  "StackTrace": null,
  "Level": 0,
  "Notification": false
},
{
  "Time": "2024-07-26T22:27:30.3070081-04:00",
  "Group": "Detect",
  "Message": "Searching for tablet 'Wacom PTZ-431W'",
  "StackTrace": null,
  "Level": 0,
  "Notification": false
},
{
  "Time": "2024-07-26T22:27:30.307024-04:00",
  "Group": "Detect",
  "Message": "Searching for tablet 'Wacom PTZ-630'",
  "StackTrace": null,
  "Level": 0,
  "Notification": false
},
{
  "Time": "2024-07-26T22:27:30.3070341-04:00",
  "Group": "Detect",
  "Message": "Searching for tablet 'Wacom PTZ-631W'",
  "StackTrace": null,
  "Level": 0,
  "Notification": false
},
{
  "Time": "2024-07-26T22:27:30.3070439-04:00",
  "Group": "Detect",
  "Message": "Searching for tablet 'Wacom PTZ-930'",
  "StackTrace": null,
  "Level": 0,
  "Notification": false
},
{
  "Time": "2024-07-26T22:27:30.3070567-04:00",
  "Group": "Detect",
  "Message": "Searching for tablet 'Wacom XD-0405-U'",
  "StackTrace": null,
  "Level": 0,
  "Notification": false
},
{
  "Time": "2024-07-26T22:27:30.3070669-04:00",
  "Group": "Detect",
  "Message": "Searching for tablet 'Wacom XD-0608-U'",
  "StackTrace": null,
  "Level": 0,
  "Notification": false
},
{
  "Time": "2024-07-26T22:27:30.30708-04:00",
  "Group": "Detect",
  "Message": "Searching for tablet 'Wacom XD-0912-U'",
  "StackTrace": null,
  "Level": 0,
  "Notification": false
},
{
  "Time": "2024-07-26T22:27:30.3070901-04:00",
  "Group": "Detect",
  "Message": "Searching for tablet 'Wacom XD-1212-U'",
  "StackTrace": null,
  "Level": 0,
  "Notification": false
},
{
  "Time": "2024-07-26T22:27:30.3071028-04:00",
  "Group": "Detect",
  "Message": "Searching for tablet 'Wacom XD-1218-U'",
  "StackTrace": null,
  "Level": 0,
  "Notification": false
},
{
  "Time": "2024-07-26T22:27:30.3071128-04:00",
  "Group": "Detect",
  "Message": "Searching for tablet 'Waltop Slim Tablet 5.8\"'",
  "StackTrace": null,
  "Level": 0,
  "Notification": false
},
{
  "Time": "2024-07-26T22:27:30.3071249-04:00",
  "Group": "Detect",
  "Message": "Searching for tablet 'XenceLabs Pen Tablet Medium'",
  "StackTrace": null,
  "Level": 0,
  "Notification": false
},
{
  "Time": "2024-07-26T22:27:30.3071346-04:00",
  "Group": "Detect",
  "Message": "Searching for tablet 'XenceLabs Pen Tablet Small'",
  "StackTrace": null,
  "Level": 0,
  "Notification": false
},
{
  "Time": "2024-07-26T22:27:30.3071437-04:00",
  "Group": "Detect",
  "Message": "Searching for tablet 'XENX P1-640'",
  "StackTrace": null,
  "Level": 0,
  "Notification": false
},
{
  "Time": "2024-07-26T22:27:30.3071522-04:00",
  "Group": "Detect",
  "Message": "Searching for tablet 'XENX P3-1060'",
  "StackTrace": null,
  "Level": 0,
  "Notification": false
},
{
  "Time": "2024-07-26T22:27:30.3071629-04:00",
  "Group": "Detect",
  "Message": "Searching for tablet 'XENX X1-640'",
  "StackTrace": null,
  "Level": 0,
  "Notification": false
},
{
  "Time": "2024-07-26T22:27:30.3071713-04:00",
  "Group": "Detect",
  "Message": "Searching for tablet 'XP-Pen Artist 10 (2nd Gen)'",
  "StackTrace": null,
  "Level": 0,
  "Notification": false
},
{
  "Time": "2024-07-26T22:27:30.3071802-04:00",
  "Group": "Detect",
  "Message": "Searching for tablet 'XP-Pen Artist 12 (2nd Gen)'",
  "StackTrace": null,
  "Level": 0,
  "Notification": false
},
{
  "Time": "2024-07-26T22:27:30.3071893-04:00",
  "Group": "Detect",
  "Message": "Searching for tablet 'XP-Pen Artist 12 Pro'",
  "StackTrace": null,
  "Level": 0,
  "Notification": false
},
{
  "Time": "2024-07-26T22:27:30.3072039-04:00",
  "Group": "Detect",
  "Message": "Searching for tablet 'XP-Pen Artist 12'",
  "StackTrace": null,
  "Level": 0,
  "Notification": false
},
{
  "Time": "2024-07-26T22:27:30.3072127-04:00",
  "Group": "Detect",
  "Message": "Searching for tablet 'XP-Pen Artist 13 (2nd Gen)'",
  "StackTrace": null,
  "Level": 0,
  "Notification": false
},
{
  "Time": "2024-07-26T22:27:30.3072222-04:00",
  "Group": "Detect",
  "Message": "Searching for tablet 'XP-Pen Artist 13.3 Pro'",
  "StackTrace": null,
  "Level": 0,
  "Notification": false
},
{
  "Time": "2024-07-26T22:27:30.3072339-04:00",
  "Group": "Detect",
  "Message": "Searching for tablet 'XP-Pen Artist 13.3'",
  "StackTrace": null,
  "Level": 0,
  "Notification": false
},
{
  "Time": "2024-07-26T22:27:30.3072427-04:00",
  "Group": "Detect",
  "Message": "Searching for tablet 'XP-Pen Artist 15.6 Pro'",
  "StackTrace": null,
  "Level": 0,
  "Notification": false
},
{
  "Time": "2024-07-26T22:27:30.3072517-04:00",
  "Group": "Detect",
  "Message": "Searching for tablet 'XP-Pen Artist 15.6'",
  "StackTrace": null,
  "Level": 0,
  "Notification": false
},
{
  "Time": "2024-07-26T22:27:30.3072646-04:00",
  "Group": "Detect",
  "Message": "Searching for tablet 'XP-Pen Artist 16 (2nd Gen)'",
  "StackTrace": null,
  "Level": 0,
  "Notification": false
},
{
  "Time": "2024-07-26T22:27:30.3072738-04:00",
  "Group": "Detect",
  "Message": "Searching for tablet 'XP-Pen Artist 16 Pro'",
  "StackTrace": null,
  "Level": 0,
  "Notification": false
},
{
  "Time": "2024-07-26T22:27:30.3072829-04:00",
  "Group": "Detect",
  "Message": "Searching for tablet 'XP-Pen Artist 22HD'",
  "StackTrace": null,
  "Level": 0,
  "Notification": false
},
{
  "Time": "2024-07-26T22:27:30.3072918-04:00",
  "Group": "Detect",
  "Message": "Searching for tablet 'XP-Pen Artist Pro 16TP'",
  "StackTrace": null,
  "Level": 0,
  "Notification": false
},
{
  "Time": "2024-07-26T22:27:30.3073033-04:00",
  "Group": "Detect",
  "Message": "Searching for tablet 'XP-Pen CT1060'",
  "StackTrace": null,
  "Level": 0,
  "Notification": false
},
{
  "Time": "2024-07-26T22:27:30.3073117-04:00",
  "Group": "Detect",
  "Message": "Searching for tablet 'XP-Pen CT430'",
  "StackTrace": null,
  "Level": 0,
  "Notification": false
},
{
  "Time": "2024-07-26T22:27:30.3073213-04:00",
  "Group": "Detect",
  "Message": "Searching for tablet 'XP-Pen CT640'",
  "StackTrace": null,
  "Level": 0,
  "Notification": false
},
{
  "Time": "2024-07-26T22:27:30.3073335-04:00",
  "Group": "Detect",
  "Message": "Searching for tablet 'XP-Pen Deco 01 V2 (variant 2)'",
  "StackTrace": null,
  "Level": 0,
  "Notification": false
},
{
  "Time": "2024-07-26T22:27:30.3073441-04:00",
  "Group": "Detect",
  "Message": "Searching for tablet 'XP-Pen Deco 01 V2'",
  "StackTrace": null,
  "Level": 0,
  "Notification": false
},
{
  "Time": "2024-07-26T22:27:30.3073585-04:00",
  "Group": "Detect",
  "Message": "Searching for tablet 'XP-Pen Deco 01'",
  "StackTrace": null,
  "Level": 0,
  "Notification": false
},
{
  "Time": "2024-07-26T22:27:30.307367-04:00",
  "Group": "Detect",
  "Message": "Searching for tablet 'XP-Pen Deco 02'",
  "StackTrace": null,
  "Level": 0,
  "Notification": false
},
{
  "Time": "2024-07-26T22:27:30.3073754-04:00",
  "Group": "Detect",
  "Message": "Searching for tablet 'XP-Pen Deco 03'",
  "StackTrace": null,
  "Level": 0,
  "Notification": false
},
{
  "Time": "2024-07-26T22:27:30.3073881-04:00",
  "Group": "Detect",
  "Message": "Searching for tablet 'XP-Pen Deco L'",
  "StackTrace": null,
  "Level": 0,
  "Notification": false
},
{
  "Time": "2024-07-26T22:27:30.3073965-04:00",
  "Group": "Detect",
  "Message": "Searching for tablet 'XP-Pen Deco M'",
  "StackTrace": null,
  "Level": 0,
  "Notification": false
},
{
  "Time": "2024-07-26T22:27:30.3074049-04:00",
  "Group": "Detect",
  "Message": "Searching for tablet 'XP-Pen Deco mini4'",
  "StackTrace": null,
  "Level": 0,
  "Notification": false
},
{
  "Time": "2024-07-26T22:27:30.3074135-04:00",
  "Group": "Detect",
  "Message": "Searching for tablet 'XP-Pen Deco mini7'",
  "StackTrace": null,
  "Level": 0,
  "Notification": false
},
{
  "Time": "2024-07-26T22:27:30.3074283-04:00",
  "Group": "Detect",
  "Message": "Searching for tablet 'XP-Pen Deco Pro Medium'",
  "StackTrace": null,
  "Level": 0,
  "Notification": false
},
{
  "Time": "2024-07-26T22:27:30.3074399-04:00",
  "Group": "Detect",
  "Message": "Searching for tablet 'XP-Pen Deco Pro Small'",
  "StackTrace": null,
  "Level": 0,
  "Notification": false
},
{
  "Time": "2024-07-26T22:27:30.3074488-04:00",
  "Group": "Detect",
  "Message": "Searching for tablet 'XP-Pen Deco Pro SW'",
  "StackTrace": null,
  "Level": 0,
  "Notification": false
},
{
  "Time": "2024-07-26T22:27:30.3074574-04:00",
  "Group": "Detect",
  "Message": "Searching for tablet 'XP-Pen Innovator 16'",
  "StackTrace": null,
  "Level": 0,
  "Notification": false
},
{
  "Time": "2024-07-26T22:27:30.3074662-04:00",
  "Group": "Detect",
  "Message": "Searching for tablet 'XP-Pen Star 03'",
  "StackTrace": null,
  "Level": 0,
  "Notification": false
},
{
  "Time": "2024-07-26T22:27:30.3074795-04:00",
  "Group": "Detect",
  "Message": "Searching for tablet 'XP-Pen Star 05 V3'",
  "StackTrace": null,
  "Level": 0,
  "Notification": false
},
{
  "Time": "2024-07-26T22:27:30.3074881-04:00",
  "Group": "Detect",
  "Message": "Searching for tablet 'XP-Pen Star 06'",
  "StackTrace": null,
  "Level": 0,
  "Notification": false
},
{
  "Time": "2024-07-26T22:27:30.3075-04:00",
  "Group": "Detect",
  "Message": "Searching for tablet 'XP-Pen Star 06C'",
  "StackTrace": null,
  "Level": 0,
  "Notification": false
},
{
  "Time": "2024-07-26T22:27:30.3075085-04:00",
  "Group": "Detect",
  "Message": "Searching for tablet 'XP-Pen Star G430'",
  "StackTrace": null,
  "Level": 0,
  "Notification": false
},
{
  "Time": "2024-07-26T22:27:30.3075181-04:00",
  "Group": "Detect",
  "Message": "Searching for tablet 'XP-Pen Star G430S V2'",
  "StackTrace": null,
  "Level": 0,
  "Notification": false
},
{
  "Time": "2024-07-26T22:27:30.3075325-04:00",
  "Group": "Detect",
  "Message": "Searching for tablet 'XP-Pen Star G430S'",
  "StackTrace": null,
  "Level": 0,
  "Notification": false
},
{
  "Time": "2024-07-26T22:27:30.3075417-04:00",
  "Group": "Detect",
  "Message": "Searching for tablet 'XP-Pen Star G540 Pro'",
  "StackTrace": null,
  "Level": 0,
  "Notification": false
},
{
  "Time": "2024-07-26T22:27:30.3075503-04:00",
  "Group": "Detect",
  "Message": "Searching for tablet 'XP-Pen Star G540'",
  "StackTrace": null,
  "Level": 0,
  "Notification": false
},
{
  "Time": "2024-07-26T22:27:30.3075588-04:00",
  "Group": "Detect",
  "Message": "Searching for tablet 'XP-Pen Star G640 V2'",
  "StackTrace": null,
  "Level": 0,
  "Notification": false
},
{
  "Time": "2024-07-26T22:27:30.307571-04:00",
  "Group": "Detect",
  "Message": "Searching for tablet 'XP-Pen Star G640'",
  "StackTrace": null,
  "Level": 0,
  "Notification": false
},
{
  "Time": "2024-07-26T22:27:30.3075797-04:00",
  "Group": "Detect",
  "Message": "Searching for tablet 'XP-Pen Star G640S'",
  "StackTrace": null,
  "Level": 0,
  "Notification": false
},
{
  "Time": "2024-07-26T22:27:30.3075931-04:00",
  "Group": "Detect",
  "Message": "Searching for tablet 'XP-Pen Star G960'",
  "StackTrace": null,
  "Level": 0,
  "Notification": false
},
{
  "Time": "2024-07-26T22:27:30.3076016-04:00",
  "Group": "Detect",
  "Message": "Searching for tablet 'XP-Pen Star G960S Plus'",
  "StackTrace": null,
  "Level": 0,
  "Notification": false
},
{
  "Time": "2024-07-26T22:27:30.3076103-04:00",
  "Group": "Detect",
  "Message": "Searching for tablet 'XP-Pen Star G960S'",
  "StackTrace": null,
  "Level": 0,
  "Notification": false
},
{
  "Time": "2024-07-26T22:27:30.4392833-04:00",
  "Group": "Evdev",
  "Message": "Successfully initialized virtual pressure sensitive tablet. (code NONE)",
  "StackTrace": null,
  "Level": 0,
  "Notification": false
},
{
  "Time": "2024-07-26T22:27:30.4425222-04:00",
  "Group": "Wacom CTH-480",
  "Message": "Output mode: Artist Mode",
  "StackTrace": null,
  "Level": 1,
  "Notification": false
},
{
  "Time": "2024-07-26T22:27:30.4459331-04:00",
  "Group": "Wacom CTH-480",
  "Message": "Display area: [5120x1440@<2560, 720>:0°],",
  "StackTrace": null,
  "Level": 1,
  "Notification": false
},
{
  "Time": "2024-07-26T22:27:30.4461013-04:00",
  "Group": "Wacom CTH-480",
  "Message": "Tablet area: [74x41.625@<37, 20.8125>:0°],",
  "StackTrace": null,
  "Level": 1,
  "Notification": false
},
{
  "Time": "2024-07-26T22:27:30.4461683-04:00",
  "Group": "Wacom CTH-480",
  "Message": "Clipping: Enabled",
  "StackTrace": null,
  "Level": 1,
  "Notification": false
},
{
  "Time": "2024-07-26T22:27:30.4462266-04:00",
  "Group": "Wacom CTH-480",
  "Message": "Ignoring reports outside area: Disabled",
  "StackTrace": null,
  "Level": 1,
  "Notification": false
},
{
  "Time": "2024-07-26T22:27:30.4510667-04:00",
  "Group": "Wacom CTH-480",
  "Message": "Tip Binding: [Mouse Button Binding: Left]@0%",
  "StackTrace": null,
  "Level": 1,
  "Notification": false
},
{
  "Time": "2024-07-26T22:27:30.4608318-04:00",
  "Group": "Wacom CTH-480",
  "Message": "Filters: TabletDriverFilters.Hawku.Smoothing, OpenTabletDriver.Plugin.NoiseReduction",
  "StackTrace": null,
  "Level": 1,
  "Notification": false
},
{
  "Time": "2024-07-26T22:27:30.4608705-04:00",
  "Group": "Settings",
  "Message": "Driver is enabled.",
  "StackTrace": null,
  "Level": 1,
  "Notification": false
},
