[
{
  "Time": "2024-07-24T07:54:23.8573649-04:00",
  "Group": "Plugin",
  "Message": "Loading plugin 'HawkuFilters'",
  "StackTrace": null,
  "Level": 0,
  "Notification": false
},
{
  "Time": "2024-07-24T07:54:23.8769803-04:00",
  "Group": "Detect",
  "Message": "Searching for tablets...",
  "StackTrace": null,
  "Level": 1,
  "Notification": false
},
{
  "Time": "2024-07-24T07:54:23.8852624-04:00",
  "Group": "Detect",
  "Message": "Searching for tablet '10moon 1060N'",
  "StackTrace": null,
  "Level": 0,
  "Notification": false
},
{
  "Time": "2024-07-24T07:54:23.8861996-04:00",
  "Group": "Detect",
  "Message": "Searching for tablet 'Acepen AP 1060'",
  "StackTrace": null,
  "Level": 0,
  "Notification": false
},
{
  "Time": "2024-07-24T07:54:23.8862315-04:00",
  "Group": "Detect",
  "Message": "Searching for tablet 'Adesso Cybertablet K8'",
  "StackTrace": null,
  "Level": 0,
  "Notification": false
},
{
  "Time": "2024-07-24T07:54:23.8862423-04:00",
  "Group": "Detect",
  "Message": "Searching for tablet 'Artisul A1201'",
  "StackTrace": null,
  "Level": 0,
  "Notification": false
},
{
  "Time": "2024-07-24T07:54:23.886255-04:00",
  "Group": "Detect",
  "Message": "Searching for tablet 'Artisul AP604'",
  "StackTrace": null,
  "Level": 0,
  "Notification": false
},
{
  "Time": "2024-07-24T07:54:23.8862636-04:00",
  "Group": "Detect",
  "Message": "Searching for tablet 'Artisul M0610 Pro'",
  "StackTrace": null,
  "Level": 0,
  "Notification": false
},
{
  "Time": "2024-07-24T07:54:23.8862724-04:00",
  "Group": "Detect",
  "Message": "Searching for tablet 'FlooGoo FMA100'",
  "StackTrace": null,
  "Level": 0,
  "Notification": false
},
{
  "Time": "2024-07-24T07:54:23.8862809-04:00",
  "Group": "Detect",
  "Message": "Searching for tablet 'Gaomon 1060 Pro'",
  "StackTrace": null,
  "Level": 0,
  "Notification": false
},
{
  "Time": "2024-07-24T07:54:23.8862954-04:00",
  "Group": "Detect",
  "Message": "Searching for tablet 'Gaomon GM116HD'",
  "StackTrace": null,
  "Level": 0,
  "Notification": false
},
{
  "Time": "2024-07-24T07:54:23.8863038-04:00",
  "Group": "Detect",
  "Message": "Searching for tablet 'Gaomon GM156HD'",
  "StackTrace": null,
  "Level": 0,
  "Notification": false
},
{
  "Time": "2024-07-24T07:54:23.886317-04:00",
  "Group": "Detect",
  "Message": "Searching for tablet 'Gaomon M106K Pro'",
  "StackTrace": null,
  "Level": 0,
  "Notification": false
},
{
  "Time": "2024-07-24T07:54:23.8863266-04:00",
  "Group": "Detect",
  "Message": "Searching for tablet 'Gaomon M106K'",
  "StackTrace": null,
  "Level": 0,
  "Notification": false
},
{
  "Time": "2024-07-24T07:54:23.8863348-04:00",
  "Group": "Detect",
  "Message": "Searching for tablet 'Gaomon M10K Pro'",
  "StackTrace": null,
  "Level": 0,
  "Notification": false
},
{
  "Time": "2024-07-24T07:54:23.8863528-04:00",
  "Group": "Detect",
  "Message": "Searching for tablet 'Gaomon M10K'",
  "StackTrace": null,
  "Level": 0,
  "Notification": false
},
{
  "Time": "2024-07-24T07:54:23.8863616-04:00",
  "Group": "Detect",
  "Message": "Searching for tablet 'Gaomon M1220'",
  "StackTrace": null,
  "Level": 0,
  "Notification": false
},
{
  "Time": "2024-07-24T07:54:23.8863698-04:00",
  "Group": "Detect",
  "Message": "Searching for tablet 'Gaomon M1230'",
  "StackTrace": null,
  "Level": 0,
  "Notification": false
},
{
  "Time": "2024-07-24T07:54:23.8863817-04:00",
  "Group": "Detect",
  "Message": "Searching for tablet 'Gaomon M6'",
  "StackTrace": null,
  "Level": 0,
  "Notification": false
},
{
  "Time": "2024-07-24T07:54:23.8863914-04:00",
  "Group": "Detect",
  "Message": "Searching for tablet 'Gaomon PD1161'",
  "StackTrace": null,
  "Level": 0,
  "Notification": false
},
{
  "Time": "2024-07-24T07:54:23.8863996-04:00",
  "Group": "Detect",
  "Message": "Searching for tablet 'Gaomon PD156 Pro'",
  "StackTrace": null,
  "Level": 0,
  "Notification": false
},
{
  "Time": "2024-07-24T07:54:23.8864106-04:00",
  "Group": "Detect",
  "Message": "Searching for tablet 'Gaomon PD1560'",
  "StackTrace": null,
  "Level": 0,
  "Notification": false
},
{
  "Time": "2024-07-24T07:54:23.8864189-04:00",
  "Group": "Detect",
  "Message": "Searching for tablet 'Gaomon PD1561'",
  "StackTrace": null,
  "Level": 0,
  "Notification": false
},
{
  "Time": "2024-07-24T07:54:23.8864272-04:00",
  "Group": "Detect",
  "Message": "Searching for tablet 'Gaomon PD2200'",
  "StackTrace": null,
  "Level": 0,
  "Notification": false
},
{
  "Time": "2024-07-24T07:54:23.886439-04:00",
  "Group": "Detect",
  "Message": "Searching for tablet 'Gaomon S56K'",
  "StackTrace": null,
  "Level": 0,
  "Notification": false
},
{
  "Time": "2024-07-24T07:54:23.8864496-04:00",
  "Group": "Detect",
  "Message": "Searching for tablet 'Gaomon S620'",
  "StackTrace": null,
  "Level": 0,
  "Notification": false
},
{
  "Time": "2024-07-24T07:54:23.886467-04:00",
  "Group": "Detect",
  "Message": "Searching for tablet 'Gaomon S630'",
  "StackTrace": null,
  "Level": 0,
  "Notification": false
},
{
  "Time": "2024-07-24T07:54:23.886476-04:00",
  "Group": "Detect",
  "Message": "Searching for tablet 'Gaomon S830'",
  "StackTrace": null,
  "Level": 0,
  "Notification": false
},
{
  "Time": "2024-07-24T07:54:23.8864841-04:00",
  "Group": "Detect",
  "Message": "Searching for tablet 'Genius G-Pen 560'",
  "StackTrace": null,
  "Level": 0,
  "Notification": false
},
{
  "Time": "2024-07-24T07:54:23.8864925-04:00",
  "Group": "Detect",
  "Message": "Searching for tablet 'Genius i405x'",
  "StackTrace": null,
  "Level": 0,
  "Notification": false
},
{
  "Time": "2024-07-24T07:54:23.8865037-04:00",
  "Group": "Detect",
  "Message": "Searching for tablet 'Genius i608x'",
  "StackTrace": null,
  "Level": 0,
  "Notification": false
},
{
  "Time": "2024-07-24T07:54:23.886512-04:00",
  "Group": "Detect",
  "Message": "Searching for tablet 'Huion 420'",
  "StackTrace": null,
  "Level": 0,
  "Notification": false
},
{
  "Time": "2024-07-24T07:54:23.8865211-04:00",
  "Group": "Detect",
  "Message": "Searching for tablet 'Huion G10T'",
  "StackTrace": null,
  "Level": 0,
  "Notification": false
},
{
  "Time": "2024-07-24T07:54:23.886532-04:00",
  "Group": "Detect",
  "Message": "Searching for tablet 'Huion G930L'",
  "StackTrace": null,
  "Level": 0,
  "Notification": false
},
{
  "Time": "2024-07-24T07:54:23.8865402-04:00",
  "Group": "Detect",
  "Message": "Searching for tablet 'Huion GC610'",
  "StackTrace": null,
  "Level": 0,
  "Notification": false
},
{
  "Time": "2024-07-24T07:54:23.8865494-04:00",
  "Group": "Detect",
  "Message": "Searching for tablet 'Huion GT-220 V2'",
  "StackTrace": null,
  "Level": 0,
  "Notification": false
},
{
  "Time": "2024-07-24T07:54:23.8865604-04:00",
  "Group": "Detect",
  "Message": "Searching for tablet 'Huion GT-221 Pro'",
  "StackTrace": null,
  "Level": 0,
  "Notification": false
},
{
  "Time": "2024-07-24T07:54:23.8865697-04:00",
  "Group": "Detect",
  "Message": "Searching for tablet 'Huion GT-221'",
  "StackTrace": null,
  "Level": 0,
  "Notification": false
},
{
  "Time": "2024-07-24T07:54:23.8865785-04:00",
  "Group": "Detect",
  "Message": "Searching for tablet 'Huion H1060P'",
  "StackTrace": null,
  "Level": 0,
  "Notification": false
},
{
  "Time": "2024-07-24T07:54:23.886595-04:00",
  "Group": "Detect",
  "Message": "Searching for tablet 'Huion H1161'",
  "StackTrace": null,
  "Level": 0,
  "Notification": false
},
{
  "Time": "2024-07-24T07:54:23.8866046-04:00",
  "Group": "Detect",
  "Message": "Searching for tablet 'Huion H320M'",
  "StackTrace": null,
  "Level": 0,
  "Notification": false
},
{
  "Time": "2024-07-24T07:54:23.8866163-04:00",
  "Group": "Detect",
  "Message": "Searching for tablet 'Huion H420'",
  "StackTrace": null,
  "Level": 0,
  "Notification": false
},
{
  "Time": "2024-07-24T07:54:23.8866244-04:00",
  "Group": "Detect",
  "Message": "Searching for tablet 'Huion H420X'",
  "StackTrace": null,
  "Level": 0,
  "Notification": false
},
{
  "Time": "2024-07-24T07:54:23.8866361-04:00",
  "Group": "Detect",
  "Message": "Searching for tablet 'Huion H430P'",
  "StackTrace": null,
  "Level": 0,
  "Notification": false
},
{
  "Time": "2024-07-24T07:54:23.886648-04:00",
  "Group": "Detect",
  "Message": "Searching for tablet 'Huion H580X'",
  "StackTrace": null,
  "Level": 0,
  "Notification": false
},
{
  "Time": "2024-07-24T07:54:23.8866588-04:00",
  "Group": "Detect",
  "Message": "Searching for tablet 'Huion H610 Pro V2'",
  "StackTrace": null,
  "Level": 0,
  "Notification": false
},
{
  "Time": "2024-07-24T07:54:23.8866701-04:00",
  "Group": "Detect",
  "Message": "Searching for tablet 'Huion H610 Pro V3'",
  "StackTrace": null,
  "Level": 0,
  "Notification": false
},
{
  "Time": "2024-07-24T07:54:23.8866813-04:00",
  "Group": "Detect",
  "Message": "Searching for tablet 'Huion H610 Pro'",
  "StackTrace": null,
  "Level": 0,
  "Notification": false
},
{
  "Time": "2024-07-24T07:54:23.8866908-04:00",
  "Group": "Detect",
  "Message": "Searching for tablet 'Huion H610X'",
  "StackTrace": null,
  "Level": 0,
  "Notification": false
},
{
  "Time": "2024-07-24T07:54:23.8867027-04:00",
  "Group": "Detect",
  "Message": "Searching for tablet 'Huion H640P'",
  "StackTrace": null,
  "Level": 0,
  "Notification": false
},
{
  "Time": "2024-07-24T07:54:23.8867144-04:00",
  "Group": "Detect",
  "Message": "Searching for tablet 'Huion H641P'",
  "StackTrace": null,
  "Level": 0,
  "Notification": false
},
{
  "Time": "2024-07-24T07:54:23.886725-04:00",
  "Group": "Detect",
  "Message": "Searching for tablet 'Huion H642'",
  "StackTrace": null,
  "Level": 0,
  "Notification": false
},
{
  "Time": "2024-07-24T07:54:23.8867335-04:00",
  "Group": "Detect",
  "Message": "Searching for tablet 'Huion H690'",
  "StackTrace": null,
  "Level": 0,
  "Notification": false
},
{
  "Time": "2024-07-24T07:54:23.886743-04:00",
  "Group": "Detect",
  "Message": "Searching for tablet 'Huion H950P'",
  "StackTrace": null,
  "Level": 0,
  "Notification": false
},
{
  "Time": "2024-07-24T07:54:23.8867583-04:00",
  "Group": "Detect",
  "Message": "Searching for tablet 'Huion HC16'",
  "StackTrace": null,
  "Level": 0,
  "Notification": false
},
{
  "Time": "2024-07-24T07:54:23.8867679-04:00",
  "Group": "Detect",
  "Message": "Searching for tablet 'Huion HS610'",
  "StackTrace": null,
  "Level": 0,
  "Notification": false
},
{
  "Time": "2024-07-24T07:54:23.886781-04:00",
  "Group": "Detect",
  "Message": "Searching for tablet 'Huion HS611'",
  "StackTrace": null,
  "Level": 0,
  "Notification": false
},
{
  "Time": "2024-07-24T07:54:23.8867905-04:00",
  "Group": "Detect",
  "Message": "Searching for tablet 'Huion HS64'",
  "StackTrace": null,
  "Level": 0,
  "Notification": false
},
{
  "Time": "2024-07-24T07:54:23.8868068-04:00",
  "Group": "Detect",
  "Message": "Searching for tablet 'Huion HS95'",
  "StackTrace": null,
  "Level": 0,
  "Notification": false
},
{
  "Time": "2024-07-24T07:54:23.8868152-04:00",
  "Group": "Detect",
  "Message": "Searching for tablet 'Huion Kamvas 12'",
  "StackTrace": null,
  "Level": 0,
  "Notification": false
},
{
  "Time": "2024-07-24T07:54:23.8868238-04:00",
  "Group": "Detect",
  "Message": "Searching for tablet 'Huion Kamvas 13'",
  "StackTrace": null,
  "Level": 0,
  "Notification": false
},
{
  "Time": "2024-07-24T07:54:23.8868324-04:00",
  "Group": "Detect",
  "Message": "Searching for tablet 'Huion Kamvas 16 (2021)'",
  "StackTrace": null,
  "Level": 0,
  "Notification": false
},
{
  "Time": "2024-07-24T07:54:23.8868438-04:00",
  "Group": "Detect",
  "Message": "Searching for tablet 'Huion Kamvas 16'",
  "StackTrace": null,
  "Level": 0,
  "Notification": false
},
{
  "Time": "2024-07-24T07:54:23.8868526-04:00",
  "Group": "Detect",
  "Message": "Searching for tablet 'Huion Kamvas 20'",
  "StackTrace": null,
  "Level": 0,
  "Notification": false
},
{
  "Time": "2024-07-24T07:54:23.8868612-04:00",
  "Group": "Detect",
  "Message": "Searching for tablet 'Huion Kamvas 22 Plus'",
  "StackTrace": null,
  "Level": 0,
  "Notification": false
},
{
  "Time": "2024-07-24T07:54:23.8868727-04:00",
  "Group": "Detect",
  "Message": "Searching for tablet 'Huion Kamvas 22'",
  "StackTrace": null,
  "Level": 0,
  "Notification": false
},
{
  "Time": "2024-07-24T07:54:23.8868814-04:00",
  "Group": "Detect",
  "Message": "Searching for tablet 'Huion Kamvas 24 Plus'",
  "StackTrace": null,
  "Level": 0,
  "Notification": false
},
{
  "Time": "2024-07-24T07:54:23.8868904-04:00",
  "Group": "Detect",
  "Message": "Searching for tablet 'Huion Kamvas Pro 12'",
  "StackTrace": null,
  "Level": 0,
  "Notification": false
},
{
  "Time": "2024-07-24T07:54:23.886899-04:00",
  "Group": "Detect",
  "Message": "Searching for tablet 'Huion Kamvas Pro 13 (2.5k)'",
  "StackTrace": null,
  "Level": 0,
  "Notification": false
},
{
  "Time": "2024-07-24T07:54:23.8869106-04:00",
  "Group": "Detect",
  "Message": "Searching for tablet 'Huion Kamvas Pro 13'",
  "StackTrace": null,
  "Level": 0,
  "Notification": false
},
{
  "Time": "2024-07-24T07:54:23.8869208-04:00",
  "Group": "Detect",
  "Message": "Searching for tablet 'Huion Kamvas Pro 16 (2.5k)'",
  "StackTrace": null,
  "Level": 0,
  "Notification": false
},
{
  "Time": "2024-07-24T07:54:23.8869375-04:00",
  "Group": "Detect",
  "Message": "Searching for tablet 'Huion Kamvas Pro 16'",
  "StackTrace": null,
  "Level": 0,
  "Notification": false
},
{
  "Time": "2024-07-24T07:54:23.8869481-04:00",
  "Group": "Detect",
  "Message": "Searching for tablet 'Huion Kamvas Pro 20'",
  "StackTrace": null,
  "Level": 0,
  "Notification": false
},
{
  "Time": "2024-07-24T07:54:23.8869568-04:00",
  "Group": "Detect",
  "Message": "Searching for tablet 'Huion Kamvas Pro 24 (4K)'",
  "StackTrace": null,
  "Level": 0,
  "Notification": false
},
{
  "Time": "2024-07-24T07:54:23.8869687-04:00",
  "Group": "Detect",
  "Message": "Searching for tablet 'Huion Kamvas Pro 24'",
  "StackTrace": null,
  "Level": 0,
  "Notification": false
},
{
  "Time": "2024-07-24T07:54:23.8869775-04:00",
  "Group": "Detect",
  "Message": "Searching for tablet 'Huion New 1060 Plus (2048)'",
  "StackTrace": null,
  "Level": 0,
  "Notification": false
},
{
  "Time": "2024-07-24T07:54:23.8869879-04:00",
  "Group": "Detect",
  "Message": "Searching for tablet 'Huion New 1060 Plus'",
  "StackTrace": null,
  "Level": 0,
  "Notification": false
},
{
  "Time": "2024-07-24T07:54:23.8870003-04:00",
  "Group": "Detect",
  "Message": "Searching for tablet 'Huion Q11K V2'",
  "StackTrace": null,
  "Level": 0,
  "Notification": false
},
{
  "Time": "2024-07-24T07:54:23.8870089-04:00",
  "Group": "Detect",
  "Message": "Searching for tablet 'Huion Q11K'",
  "StackTrace": null,
  "Level": 0,
  "Notification": false
},
{
  "Time": "2024-07-24T07:54:23.8870209-04:00",
  "Group": "Detect",
  "Message": "Searching for tablet 'Huion Q620M'",
  "StackTrace": null,
  "Level": 0,
  "Notification": false
},
{
  "Time": "2024-07-24T07:54:23.8870293-04:00",
  "Group": "Detect",
  "Message": "Searching for tablet 'Huion Q630M'",
  "StackTrace": null,
  "Level": 0,
  "Notification": false
},
{
  "Time": "2024-07-24T07:54:23.8870377-04:00",
  "Group": "Detect",
  "Message": "Searching for tablet 'Huion RDS-160'",
  "StackTrace": null,
  "Level": 0,
  "Notification": false
},
{
  "Time": "2024-07-24T07:54:23.8870468-04:00",
  "Group": "Detect",
  "Message": "Searching for tablet 'Huion RTE-100'",
  "StackTrace": null,
  "Level": 0,
  "Notification": false
},
{
  "Time": "2024-07-24T07:54:23.887061-04:00",
  "Group": "Detect",
  "Message": "Searching for tablet 'Huion RTM-500'",
  "StackTrace": null,
  "Level": 0,
  "Notification": false
},
{
  "Time": "2024-07-24T07:54:23.887071-04:00",
  "Group": "Detect",
  "Message": "Searching for tablet 'Huion WH1409 V2'",
  "StackTrace": null,
  "Level": 0,
  "Notification": false
},
{
  "Time": "2024-07-24T07:54:23.8870797-04:00",
  "Group": "Detect",
  "Message": "Searching for tablet 'Huion WH1409'",
  "StackTrace": null,
  "Level": 0,
  "Notification": false
},
{
  "Time": "2024-07-24T07:54:23.8870906-04:00",
  "Group": "Detect",
  "Message": "Searching for tablet 'KENTING K5540'",
  "StackTrace": null,
  "Level": 0,
  "Notification": false
},
{
  "Time": "2024-07-24T07:54:23.8870989-04:00",
  "Group": "Detect",
  "Message": "Searching for tablet 'LifeTec LT9570'",
  "StackTrace": null,
  "Level": 0,
  "Notification": false
},
{
  "Time": "2024-07-24T07:54:23.8871072-04:00",
  "Group": "Detect",
  "Message": "Searching for tablet 'Monoprice 10594'",
  "StackTrace": null,
  "Level": 0,
  "Notification": false
},
{
  "Time": "2024-07-24T07:54:23.8871156-04:00",
  "Group": "Detect",
  "Message": "Searching for tablet 'Monoprice MP1060-HA60'",
  "StackTrace": null,
  "Level": 0,
  "Notification": false
},
{
  "Time": "2024-07-24T07:54:23.887127-04:00",
  "Group": "Detect",
  "Message": "Searching for tablet 'Parblo A609'",
  "StackTrace": null,
  "Level": 0,
  "Notification": false
},
{
  "Time": "2024-07-24T07:54:23.8871352-04:00",
  "Group": "Detect",
  "Message": "Searching for tablet 'Parblo A610 Pro'",
  "StackTrace": null,
  "Level": 0,
  "Notification": false
},
{
  "Time": "2024-07-24T07:54:23.8871435-04:00",
  "Group": "Detect",
  "Message": "Searching for tablet 'Parblo A640 V2'",
  "StackTrace": null,
  "Level": 0,
  "Notification": false
},
{
  "Time": "2024-07-24T07:54:23.8871545-04:00",
  "Group": "Detect",
  "Message": "Searching for tablet 'Parblo Intangbo M'",
  "StackTrace": null,
  "Level": 0,
  "Notification": false
},
{
  "Time": "2024-07-24T07:54:23.887172-04:00",
  "Group": "Detect",
  "Message": "Searching for tablet 'Parblo Intangbo S'",
  "StackTrace": null,
  "Level": 0,
  "Notification": false
},
{
  "Time": "2024-07-24T07:54:23.8871822-04:00",
  "Group": "Detect",
  "Message": "Searching for tablet 'Parblo Ninos M'",
  "StackTrace": null,
  "Level": 0,
  "Notification": false
},
{
  "Time": "2024-07-24T07:54:23.8872007-04:00",
  "Group": "Detect",
  "Message": "Searching for tablet 'Parblo Ninos N4'",
  "StackTrace": null,
  "Level": 0,
  "Notification": false
},
{
  "Time": "2024-07-24T07:54:23.8872098-04:00",
  "Group": "Detect",
  "Message": "Searching for tablet 'Parblo Ninos N7'",
  "StackTrace": null,
  "Level": 0,
  "Notification": false
},
{
  "Time": "2024-07-24T07:54:23.8872223-04:00",
  "Group": "Detect",
  "Message": "Searching for tablet 'Parblo Ninos S'",
  "StackTrace": null,
  "Level": 0,
  "Notification": false
},
{
  "Time": "2024-07-24T07:54:23.8872321-04:00",
  "Group": "Detect",
  "Message": "Searching for tablet 'RobotPen T9A'",
  "StackTrace": null,
  "Level": 0,
  "Notification": false
},
{
  "Time": "2024-07-24T07:54:23.8872403-04:00",
  "Group": "Detect",
  "Message": "Searching for tablet 'UC-Logic 1060N'",
  "StackTrace": null,
  "Level": 0,
  "Notification": false
},
{
  "Time": "2024-07-24T07:54:23.8872514-04:00",
  "Group": "Detect",
  "Message": "Searching for tablet 'UC-Logic PF1209'",
  "StackTrace": null,
  "Level": 0,
  "Notification": false
},
{
  "Time": "2024-07-24T07:54:23.88726-04:00",
  "Group": "Detect",
  "Message": "Searching for tablet 'UGEE S640'",
  "StackTrace": null,
  "Level": 0,
  "Notification": false
},
{
  "Time": "2024-07-24T07:54:23.8872694-04:00",
  "Group": "Detect",
  "Message": "Searching for tablet 'UGEE U1200'",
  "StackTrace": null,
  "Level": 0,
  "Notification": false
},
{
  "Time": "2024-07-24T07:54:23.8872814-04:00",
  "Group": "Detect",
  "Message": "Searching for tablet 'UGEE U1600'",
  "StackTrace": null,
  "Level": 0,
  "Notification": false
},
{
  "Time": "2024-07-24T07:54:23.8872897-04:00",
  "Group": "Detect",
  "Message": "Searching for tablet 'UGTABLET M708 V2'",
  "StackTrace": null,
  "Level": 0,
  "Notification": false
},
{
  "Time": "2024-07-24T07:54:23.8872984-04:00",
  "Group": "Detect",
  "Message": "Searching for tablet 'UGTABLET M708'",
  "StackTrace": null,
  "Level": 0,
  "Notification": false
},
{
  "Time": "2024-07-24T07:54:23.8873067-04:00",
  "Group": "Detect",
  "Message": "Searching for tablet 'VEIKK A15 Pro'",
  "StackTrace": null,
  "Level": 0,
  "Notification": false
},
{
  "Time": "2024-07-24T07:54:23.887322-04:00",
  "Group": "Detect",
  "Message": "Searching for tablet 'VEIKK A15 V2'",
  "StackTrace": null,
  "Level": 0,
  "Notification": false
},
{
  "Time": "2024-07-24T07:54:23.8873306-04:00",
  "Group": "Detect",
  "Message": "Searching for tablet 'VEIKK A15'",
  "StackTrace": null,
  "Level": 0,
  "Notification": false
},
{
  "Time": "2024-07-24T07:54:23.8873386-04:00",
  "Group": "Detect",
  "Message": "Searching for tablet 'VEIKK A30 V2'",
  "StackTrace": null,
  "Level": 0,
  "Notification": false
},
{
  "Time": "2024-07-24T07:54:23.8873496-04:00",
  "Group": "Detect",
  "Message": "Searching for tablet 'VEIKK A30'",
  "StackTrace": null,
  "Level": 0,
  "Notification": false
},
{
  "Time": "2024-07-24T07:54:23.887358-04:00",
  "Group": "Detect",
  "Message": "Searching for tablet 'VEIKK A50 V2'",
  "StackTrace": null,
  "Level": 0,
  "Notification": false
},
{
  "Time": "2024-07-24T07:54:23.8873664-04:00",
  "Group": "Detect",
  "Message": "Searching for tablet 'VEIKK A50'",
  "StackTrace": null,
  "Level": 0,
  "Notification": false
},
{
  "Time": "2024-07-24T07:54:23.8873772-04:00",
  "Group": "Detect",
  "Message": "Searching for tablet 'VEIKK S640 V2'",
  "StackTrace": null,
  "Level": 0,
  "Notification": false
},
{
  "Time": "2024-07-24T07:54:23.8873857-04:00",
  "Group": "Detect",
  "Message": "Searching for tablet 'VEIKK S640'",
  "StackTrace": null,
  "Level": 0,
  "Notification": false
},
{
  "Time": "2024-07-24T07:54:23.8873937-04:00",
  "Group": "Detect",
  "Message": "Searching for tablet 'VEIKK VK1060'",
  "StackTrace": null,
  "Level": 0,
  "Notification": false
},
{
  "Time": "2024-07-24T07:54:23.8874018-04:00",
  "Group": "Detect",
  "Message": "Searching for tablet 'VEIKK VK1060PRO'",
  "StackTrace": null,
  "Level": 0,
  "Notification": false
},
{
  "Time": "2024-07-24T07:54:23.8874129-04:00",
  "Group": "Detect",
  "Message": "Searching for tablet 'VEIKK VK430 V2'",
  "StackTrace": null,
  "Level": 0,
  "Notification": false
},
{
  "Time": "2024-07-24T07:54:23.8874214-04:00",
  "Group": "Detect",
  "Message": "Searching for tablet 'VEIKK VK430'",
  "StackTrace": null,
  "Level": 0,
  "Notification": false
},
{
  "Time": "2024-07-24T07:54:23.8874297-04:00",
  "Group": "Detect",
  "Message": "Searching for tablet 'VEIKK VK640'",
  "StackTrace": null,
  "Level": 0,
  "Notification": false
},
{
  "Time": "2024-07-24T07:54:23.8874429-04:00",
  "Group": "Detect",
  "Message": "Searching for tablet 'VEIKK Viola (VO1060)'",
  "StackTrace": null,
  "Level": 0,
  "Notification": false
},
{
  "Time": "2024-07-24T07:54:23.8874518-04:00",
  "Group": "Detect",
  "Message": "Searching for tablet 'ViewSonic Woodpad PF0730'",
  "StackTrace": null,
  "Level": 0,
  "Notification": false
},
{
  "Time": "2024-07-24T07:54:23.8874607-04:00",
  "Group": "Detect",
  "Message": "Searching for tablet 'Wacom CTC-4110WL'",
  "StackTrace": null,
  "Level": 0,
  "Notification": false
},
{
  "Time": "2024-07-24T07:54:23.8874693-04:00",
  "Group": "Detect",
  "Message": "Searching for tablet 'Wacom CTC-6110WL'",
  "StackTrace": null,
  "Level": 0,
  "Notification": false
},
{
  "Time": "2024-07-24T07:54:23.8874803-04:00",
  "Group": "Detect",
  "Message": "Searching for tablet 'Wacom CTE-430'",
  "StackTrace": null,
  "Level": 0,
  "Notification": false
},
{
  "Time": "2024-07-24T07:54:23.8876069-04:00",
  "Group": "Detect",
  "Message": "Searching for tablet 'Wacom CTE-440'",
  "StackTrace": null,
  "Level": 0,
  "Notification": false
},
{
  "Time": "2024-07-24T07:54:23.8876338-04:00",
  "Group": "Detect",
  "Message": "Searching for tablet 'Wacom CTE-450'",
  "StackTrace": null,
  "Level": 0,
  "Notification": false
},
{
  "Time": "2024-07-24T07:54:23.8876432-04:00",
  "Group": "Detect",
  "Message": "Searching for tablet 'Wacom CTE-460'",
  "StackTrace": null,
  "Level": 0,
  "Notification": false
},
{
  "Time": "2024-07-24T07:54:23.8876527-04:00",
  "Group": "Detect",
  "Message": "Searching for tablet 'Wacom CTE-630'",
  "StackTrace": null,
  "Level": 0,
  "Notification": false
},
{
  "Time": "2024-07-24T07:54:23.887665-04:00",
  "Group": "Detect",
  "Message": "Searching for tablet 'Wacom CTE-640'",
  "StackTrace": null,
  "Level": 0,
  "Notification": false
},
{
  "Time": "2024-07-24T07:54:23.8876746-04:00",
  "Group": "Detect",
  "Message": "Searching for tablet 'Wacom CTE-650'",
  "StackTrace": null,
  "Level": 0,
  "Notification": false
},
{
  "Time": "2024-07-24T07:54:23.8876913-04:00",
  "Group": "Detect",
  "Message": "Searching for tablet 'Wacom CTE-660'",
  "StackTrace": null,
  "Level": 0,
  "Notification": false
},
{
  "Time": "2024-07-24T07:54:23.8877007-04:00",
  "Group": "Detect",
  "Message": "Searching for tablet 'Wacom CTF-430'",
  "StackTrace": null,
  "Level": 0,
  "Notification": false
},
{
  "Time": "2024-07-24T07:54:23.887709-04:00",
  "Group": "Detect",
  "Message": "Searching for tablet 'Wacom CTH-301'",
  "StackTrace": null,
  "Level": 0,
  "Notification": false
},
{
  "Time": "2024-07-24T07:54:23.8877173-04:00",
  "Group": "Detect",
  "Message": "Searching for tablet 'Wacom CTH-460'",
  "StackTrace": null,
  "Level": 0,
  "Notification": false
},
{
  "Time": "2024-07-24T07:54:23.8877305-04:00",
  "Group": "Detect",
  "Message": "Searching for tablet 'Wacom CTH-461'",
  "StackTrace": null,
  "Level": 0,
  "Notification": false
},
{
  "Time": "2024-07-24T07:54:23.8877451-04:00",
  "Group": "Detect",
  "Message": "Searching for tablet 'Wacom CTH-470'",
  "StackTrace": null,
  "Level": 0,
  "Notification": false
},
{
  "Time": "2024-07-24T07:54:23.8877549-04:00",
  "Group": "Detect",
  "Message": "Searching for tablet 'Wacom CTH-480'",
  "StackTrace": null,
  "Level": 0,
  "Notification": false
},
{
  "Time": "2024-07-24T07:54:24.1226713-04:00",
  "Group": "Device",
  "Message": "Initializing device 'Intuos PTS' /sys/devices/pci0000:00/0000:00:01.2/0000:01:00.0/0000:02:08.0/0000:0a:00.3/usb3/3-4/3-4:1.0/0003:056A:0302.0004/hidraw/hidraw3",
  "StackTrace": null,
  "Level": 0,
  "Notification": false
},
{
  "Time": "2024-07-24T07:54:24.1227488-04:00",
  "Group": "Device",
  "Message": "Using report parser type 'OpenTabletDriver.Configurations.Parsers.Wacom.Intuos.IntuosReportParser'",
  "StackTrace": null,
  "Level": 0,
  "Notification": false
},
{
  "Time": "2024-07-24T07:54:24.1251912-04:00",
  "Group": "Device",
  "Message": "Set device feature: 02-02",
  "StackTrace": null,
  "Level": 0,
  "Notification": false
},
{
  "Time": "2024-07-24T07:54:24.1253481-04:00",
  "Group": "Detect",
  "Message": "Found tablet 'Wacom CTH-480'",
  "StackTrace": null,
  "Level": 1,
  "Notification": false
},
{
  "Time": "2024-07-24T07:54:24.1774433-04:00",
  "Group": "Device",
  "Message": "Initializing device 'Intuos PTS' /sys/devices/pci0000:00/0000:00:01.2/0000:01:00.0/0000:02:08.0/0000:0a:00.3/usb3/3-4/3-4:1.1/0003:056A:0302.0005/hidraw/hidraw4",
  "StackTrace": null,
  "Level": 0,
  "Notification": false
},
{
  "Time": "2024-07-24T07:54:24.1774826-04:00",
  "Group": "Device",
  "Message": "Using report parser type 'OpenTabletDriver.Configurations.Parsers.Wacom.Wacom64bAuxReportParser'",
  "StackTrace": null,
  "Level": 0,
  "Notification": false
},
{
  "Time": "2024-07-24T07:54:24.1789094-04:00",
  "Group": "Detect",
  "Message": "Searching for tablet 'Wacom CTH-490'",
  "StackTrace": null,
  "Level": 0,
  "Notification": false
},
{
  "Time": "2024-07-24T07:54:24.1789707-04:00",
  "Group": "Detect",
  "Message": "Searching for tablet 'Wacom CTH-661'",
  "StackTrace": null,
  "Level": 0,
  "Notification": false
},
{
  "Time": "2024-07-24T07:54:24.178988-04:00",
  "Group": "Detect",
  "Message": "Searching for tablet 'Wacom CTH-670'",
  "StackTrace": null,
  "Level": 0,
  "Notification": false
},
{
  "Time": "2024-07-24T07:54:24.1789981-04:00",
  "Group": "Detect",
  "Message": "Searching for tablet 'Wacom CTH-680'",
  "StackTrace": null,
  "Level": 0,
  "Notification": false
},
{
  "Time": "2024-07-24T07:54:24.1790111-04:00",
  "Group": "Detect",
  "Message": "Searching for tablet 'Wacom CTH-690'",
  "StackTrace": null,
  "Level": 0,
  "Notification": false
},
{
  "Time": "2024-07-24T07:54:24.1790209-04:00",
  "Group": "Detect",
  "Message": "Searching for tablet 'Wacom CTL-4100'",
  "StackTrace": null,
  "Level": 0,
  "Notification": false
},
{
  "Time": "2024-07-24T07:54:24.1790312-04:00",
  "Group": "Detect",
  "Message": "Searching for tablet 'Wacom CTL-4100WL'",
  "StackTrace": null,
  "Level": 0,
  "Notification": false
},
{
  "Time": "2024-07-24T07:54:24.1790609-04:00",
  "Group": "Detect",
  "Message": "Searching for tablet 'Wacom CTL-460'",
  "StackTrace": null,
  "Level": 0,
  "Notification": false
},
{
  "Time": "2024-07-24T07:54:24.1790713-04:00",
  "Group": "Detect",
  "Message": "Searching for tablet 'Wacom CTL-470'",
  "StackTrace": null,
  "Level": 0,
  "Notification": false
},
{
  "Time": "2024-07-24T07:54:24.1790842-04:00",
  "Group": "Detect",
  "Message": "Searching for tablet 'Wacom CTL-471'",
  "StackTrace": null,
  "Level": 0,
  "Notification": false
},
{
  "Time": "2024-07-24T07:54:24.179094-04:00",
  "Group": "Detect",
  "Message": "Searching for tablet 'Wacom CTL-472'",
  "StackTrace": null,
  "Level": 0,
  "Notification": false
},
{
  "Time": "2024-07-24T07:54:24.1791066-04:00",
  "Group": "Detect",
  "Message": "Searching for tablet 'Wacom CTL-480'",
  "StackTrace": null,
  "Level": 0,
  "Notification": false
},
{
  "Time": "2024-07-24T07:54:24.179117-04:00",
  "Group": "Detect",
  "Message": "Searching for tablet 'Wacom CTL-490'",
  "StackTrace": null,
  "Level": 0,
  "Notification": false
},
{
  "Time": "2024-07-24T07:54:24.1791303-04:00",
  "Group": "Detect",
  "Message": "Searching for tablet 'Wacom CTL-6100'",
  "StackTrace": null,
  "Level": 0,
  "Notification": false
},
{
  "Time": "2024-07-24T07:54:24.1791393-04:00",
  "Group": "Detect",
  "Message": "Searching for tablet 'Wacom CTL-6100WL'",
  "StackTrace": null,
  "Level": 0,
  "Notification": false
},
{
  "Time": "2024-07-24T07:54:24.1791495-04:00",
  "Group": "Detect",
  "Message": "Searching for tablet 'Wacom CTL-671'",
  "StackTrace": null,
  "Level": 0,
  "Notification": false
},
{
  "Time": "2024-07-24T07:54:24.179167-04:00",
  "Group": "Detect",
  "Message": "Searching for tablet 'Wacom CTL-672'",
  "StackTrace": null,
  "Level": 0,
  "Notification": false
},
{
  "Time": "2024-07-24T07:54:24.1791772-04:00",
  "Group": "Detect",
  "Message": "Searching for tablet 'Wacom CTL-680'",
  "StackTrace": null,
  "Level": 0,
  "Notification": false
},
{
  "Time": "2024-07-24T07:54:24.1791945-04:00",
  "Group": "Detect",
  "Message": "Searching for tablet 'Wacom CTL-690'",
  "StackTrace": null,
  "Level": 0,
  "Notification": false
},
{
  "Time": "2024-07-24T07:54:24.179205-04:00",
  "Group": "Detect",
  "Message": "Searching for tablet 'Wacom DTC-133'",
  "StackTrace": null,
  "Level": 0,
  "Notification": false
},
{
  "Time": "2024-07-24T07:54:24.1792179-04:00",
  "Group": "Detect",
  "Message": "Searching for tablet 'Wacom DTH-1320'",
  "StackTrace": null,
  "Level": 0,
  "Notification": false
},
{
  "Time": "2024-07-24T07:54:24.179227-04:00",
  "Group": "Detect",
  "Message": "Searching for tablet 'Wacom Cintiq 13HD (DTK-1300)'",
  "StackTrace": null,
  "Level": 0,
  "Notification": false
},
{
  "Time": "2024-07-24T07:54:24.1792367-04:00",
  "Group": "Detect",
  "Message": "Searching for tablet 'Wacom Cintiq 16 (DTK1660)'",
  "StackTrace": null,
  "Level": 0,
  "Notification": false
},
{
  "Time": "2024-07-24T07:54:24.1792529-04:00",
  "Group": "Detect",
  "Message": "Searching for tablet 'Wacom Cintiq 12WX (DTZ-1200W)'",
  "StackTrace": null,
  "Level": 0,
  "Notification": false
},
{
  "Time": "2024-07-24T07:54:24.179263-04:00",
  "Group": "Detect",
  "Message": "Searching for tablet 'Wacom ET-0405-U'",
  "StackTrace": null,
  "Level": 0,
  "Notification": false
},
{
  "Time": "2024-07-24T07:54:24.1792733-04:00",
  "Group": "Detect",
  "Message": "Searching for tablet 'Wacom ET-0405A-U'",
  "StackTrace": null,
  "Level": 0,
  "Notification": false
},
{
  "Time": "2024-07-24T07:54:24.1792865-04:00",
  "Group": "Detect",
  "Message": "Searching for tablet 'Wacom FT-0405-U'",
  "StackTrace": null,
  "Level": 0,
  "Notification": false
},
{
  "Time": "2024-07-24T07:54:24.1792967-04:00",
  "Group": "Detect",
  "Message": "Searching for tablet 'Wacom GD-0405-U'",
  "StackTrace": null,
  "Level": 0,
  "Notification": false
},
{
  "Time": "2024-07-24T07:54:24.1793093-04:00",
  "Group": "Detect",
  "Message": "Searching for tablet 'Wacom GD-0608-U'",
  "StackTrace": null,
  "Level": 0,
  "Notification": false
},
{
  "Time": "2024-07-24T07:54:24.1793196-04:00",
  "Group": "Detect",
  "Message": "Searching for tablet 'Wacom GD-0912-U'",
  "StackTrace": null,
  "Level": 0,
  "Notification": false
},
{
  "Time": "2024-07-24T07:54:24.1793323-04:00",
  "Group": "Detect",
  "Message": "Searching for tablet 'Wacom GD-1212-U'",
  "StackTrace": null,
  "Level": 0,
  "Notification": false
},
{
  "Time": "2024-07-24T07:54:24.1793427-04:00",
  "Group": "Detect",
  "Message": "Searching for tablet 'Wacom GD-1218-U'",
  "StackTrace": null,
  "Level": 0,
  "Notification": false
},
{
  "Time": "2024-07-24T07:54:24.1793554-04:00",
  "Group": "Detect",
  "Message": "Searching for tablet 'Wacom MTE-450'",
  "StackTrace": null,
  "Level": 0,
  "Notification": false
},
{
  "Time": "2024-07-24T07:54:24.1793653-04:00",
  "Group": "Detect",
  "Message": "Searching for tablet 'Wacom PTH-450'",
  "StackTrace": null,
  "Level": 0,
  "Notification": false
},
{
  "Time": "2024-07-24T07:54:24.1793754-04:00",
  "Group": "Detect",
  "Message": "Searching for tablet 'Wacom PTH-451'",
  "StackTrace": null,
  "Level": 0,
  "Notification": false
},
{
  "Time": "2024-07-24T07:54:24.1793881-04:00",
  "Group": "Detect",
  "Message": "Searching for tablet 'Wacom PTH-460'",
  "StackTrace": null,
  "Level": 0,
  "Notification": false
},
{
  "Time": "2024-07-24T07:54:24.1793979-04:00",
  "Group": "Detect",
  "Message": "Searching for tablet 'Wacom PTH-650'",
  "StackTrace": null,
  "Level": 0,
  "Notification": false
},
{
  "Time": "2024-07-24T07:54:24.1794105-04:00",
  "Group": "Detect",
  "Message": "Searching for tablet 'Wacom PTH-651'",
  "StackTrace": null,
  "Level": 0,
  "Notification": false
},
{
  "Time": "2024-07-24T07:54:24.1794204-04:00",
  "Group": "Detect",
  "Message": "Searching for tablet 'Wacom PTH-660'",
  "StackTrace": null,
  "Level": 0,
  "Notification": false
},
{
  "Time": "2024-07-24T07:54:24.1794377-04:00",
  "Group": "Detect",
  "Message": "Searching for tablet 'Wacom PTH-850'",
  "StackTrace": null,
  "Level": 0,
  "Notification": false
},
{
  "Time": "2024-07-24T07:54:24.1794479-04:00",
  "Group": "Detect",
  "Message": "Searching for tablet 'Wacom PTH-851'",
  "StackTrace": null,
  "Level": 0,
  "Notification": false
},
{
  "Time": "2024-07-24T07:54:24.1794614-04:00",
  "Group": "Detect",
  "Message": "Searching for tablet 'Wacom PTH-860'",
  "StackTrace": null,
  "Level": 0,
  "Notification": false
},
{
  "Time": "2024-07-24T07:54:24.1794713-04:00",
  "Group": "Detect",
  "Message": "Searching for tablet 'Wacom PTK-1240'",
  "StackTrace": null,
  "Level": 0,
  "Notification": false
},
{
  "Time": "2024-07-24T07:54:24.1794844-04:00",
  "Group": "Detect",
  "Message": "Searching for tablet 'Wacom PTK-440'",
  "StackTrace": null,
  "Level": 0,
  "Notification": false
},
{
  "Time": "2024-07-24T07:54:24.1794944-04:00",
  "Group": "Detect",
  "Message": "Searching for tablet 'Wacom PTK-450'",
  "StackTrace": null,
  "Level": 0,
  "Notification": false
},
{
  "Time": "2024-07-24T07:54:24.1795071-04:00",
  "Group": "Detect",
  "Message": "Searching for tablet 'Wacom PTK-540WL'",
  "StackTrace": null,
  "Level": 0,
  "Notification": false
},
{
  "Time": "2024-07-24T07:54:24.1795173-04:00",
  "Group": "Detect",
  "Message": "Searching for tablet 'Wacom PTK-640'",
  "StackTrace": null,
  "Level": 0,
  "Notification": false
},
{
  "Time": "2024-07-24T07:54:24.1795276-04:00",
  "Group": "Detect",
  "Message": "Searching for tablet 'Wacom PTK-650'",
  "StackTrace": null,
  "Level": 0,
  "Notification": false
},
{
  "Time": "2024-07-24T07:54:24.1795399-04:00",
  "Group": "Detect",
  "Message": "Searching for tablet 'Wacom PTK-840'",
  "StackTrace": null,
  "Level": 0,
  "Notification": false
},
{
  "Time": "2024-07-24T07:54:24.1795501-04:00",
  "Group": "Detect",
  "Message": "Searching for tablet 'Wacom PTU-600U'",
  "StackTrace": null,
  "Level": 0,
  "Notification": false
},
{
  "Time": "2024-07-24T07:54:24.1795634-04:00",
  "Group": "Detect",
  "Message": "Searching for tablet 'Wacom PTZ-1230'",
  "StackTrace": null,
  "Level": 0,
  "Notification": false
},
{
  "Time": "2024-07-24T07:54:24.1795735-04:00",
  "Group": "Detect",
  "Message": "Searching for tablet 'Wacom PTZ-1231W'",
  "StackTrace": null,
  "Level": 0,
  "Notification": false
},
{
  "Time": "2024-07-24T07:54:24.1795861-04:00",
  "Group": "Detect",
  "Message": "Searching for tablet 'Wacom PTZ-430'",
  "StackTrace": null,
  "Level": 0,
  "Notification": false
},
{
  "Time": "2024-07-24T07:54:24.179596-04:00",
  "Group": "Detect",
  "Message": "Searching for tablet 'Wacom PTZ-431W'",
  "StackTrace": null,
  "Level": 0,
  "Notification": false
},
{
  "Time": "2024-07-24T07:54:24.1796057-04:00",
  "Group": "Detect",
  "Message": "Searching for tablet 'Wacom PTZ-630'",
  "StackTrace": null,
  "Level": 0,
  "Notification": false
},
{
  "Time": "2024-07-24T07:54:24.1796197-04:00",
  "Group": "Detect",
  "Message": "Searching for tablet 'Wacom PTZ-631W'",
  "StackTrace": null,
  "Level": 0,
  "Notification": false
},
{
  "Time": "2024-07-24T07:54:24.1796295-04:00",
  "Group": "Detect",
  "Message": "Searching for tablet 'Wacom PTZ-930'",
  "StackTrace": null,
  "Level": 0,
  "Notification": false
},
{
  "Time": "2024-07-24T07:54:24.1796443-04:00",
  "Group": "Detect",
  "Message": "Searching for tablet 'Wacom XD-0405-U'",
  "StackTrace": null,
  "Level": 0,
  "Notification": false
},
{
  "Time": "2024-07-24T07:54:24.1796547-04:00",
  "Group": "Detect",
  "Message": "Searching for tablet 'Wacom XD-0608-U'",
  "StackTrace": null,
  "Level": 0,
  "Notification": false
},
{
  "Time": "2024-07-24T07:54:24.1796671-04:00",
  "Group": "Detect",
  "Message": "Searching for tablet 'Wacom XD-0912-U'",
  "StackTrace": null,
  "Level": 0,
  "Notification": false
},
{
  "Time": "2024-07-24T07:54:24.1796771-04:00",
  "Group": "Detect",
  "Message": "Searching for tablet 'Wacom XD-1212-U'",
  "StackTrace": null,
  "Level": 0,
  "Notification": false
},
{
  "Time": "2024-07-24T07:54:24.1796905-04:00",
  "Group": "Detect",
  "Message": "Searching for tablet 'Wacom XD-1218-U'",
  "StackTrace": null,
  "Level": 0,
  "Notification": false
},
{
  "Time": "2024-07-24T07:54:24.1797004-04:00",
  "Group": "Detect",
  "Message": "Searching for tablet 'Waltop Slim Tablet 5.8\"'",
  "StackTrace": null,
  "Level": 0,
  "Notification": false
},
{
  "Time": "2024-07-24T07:54:24.1797095-04:00",
  "Group": "Detect",
  "Message": "Searching for tablet 'XenceLabs Pen Tablet Medium'",
  "StackTrace": null,
  "Level": 0,
  "Notification": false
},
{
  "Time": "2024-07-24T07:54:24.1797233-04:00",
  "Group": "Detect",
  "Message": "Searching for tablet 'XenceLabs Pen Tablet Small'",
  "StackTrace": null,
  "Level": 0,
  "Notification": false
},
{
  "Time": "2024-07-24T07:54:24.1797329-04:00",
  "Group": "Detect",
  "Message": "Searching for tablet 'XENX P1-640'",
  "StackTrace": null,
  "Level": 0,
  "Notification": false
},
{
  "Time": "2024-07-24T07:54:24.1797418-04:00",
  "Group": "Detect",
  "Message": "Searching for tablet 'XENX P3-1060'",
  "StackTrace": null,
  "Level": 0,
  "Notification": false
},
{
  "Time": "2024-07-24T07:54:24.1797549-04:00",
  "Group": "Detect",
  "Message": "Searching for tablet 'XENX X1-640'",
  "StackTrace": null,
  "Level": 0,
  "Notification": false
},
{
  "Time": "2024-07-24T07:54:24.1797635-04:00",
  "Group": "Detect",
  "Message": "Searching for tablet 'XP-Pen Artist 10 (2nd Gen)'",
  "StackTrace": null,
  "Level": 0,
  "Notification": false
},
{
  "Time": "2024-07-24T07:54:24.1797729-04:00",
  "Group": "Detect",
  "Message": "Searching for tablet 'XP-Pen Artist 12 (2nd Gen)'",
  "StackTrace": null,
  "Level": 0,
  "Notification": false
},
{
  "Time": "2024-07-24T07:54:24.1797827-04:00",
  "Group": "Detect",
  "Message": "Searching for tablet 'XP-Pen Artist 12 Pro'",
  "StackTrace": null,
  "Level": 0,
  "Notification": false
},
{
  "Time": "2024-07-24T07:54:24.1797946-04:00",
  "Group": "Detect",
  "Message": "Searching for tablet 'XP-Pen Artist 12'",
  "StackTrace": null,
  "Level": 0,
  "Notification": false
},
{
  "Time": "2024-07-24T07:54:24.1798031-04:00",
  "Group": "Detect",
  "Message": "Searching for tablet 'XP-Pen Artist 13 (2nd Gen)'",
  "StackTrace": null,
  "Level": 0,
  "Notification": false
},
{
  "Time": "2024-07-24T07:54:24.179812-04:00",
  "Group": "Detect",
  "Message": "Searching for tablet 'XP-Pen Artist 13.3 Pro'",
  "StackTrace": null,
  "Level": 0,
  "Notification": false
},
{
  "Time": "2024-07-24T07:54:24.1798207-04:00",
  "Group": "Detect",
  "Message": "Searching for tablet 'XP-Pen Artist 13.3'",
  "StackTrace": null,
  "Level": 0,
  "Notification": false
},
{
  "Time": "2024-07-24T07:54:24.1798322-04:00",
  "Group": "Detect",
  "Message": "Searching for tablet 'XP-Pen Artist 15.6 Pro'",
  "StackTrace": null,
  "Level": 0,
  "Notification": false
},
{
  "Time": "2024-07-24T07:54:24.1798409-04:00",
  "Group": "Detect",
  "Message": "Searching for tablet 'XP-Pen Artist 15.6'",
  "StackTrace": null,
  "Level": 0,
  "Notification": false
},
{
  "Time": "2024-07-24T07:54:24.1798505-04:00",
  "Group": "Detect",
  "Message": "Searching for tablet 'XP-Pen Artist 16 (2nd Gen)'",
  "StackTrace": null,
  "Level": 0,
  "Notification": false
},
{
  "Time": "2024-07-24T07:54:24.179866-04:00",
  "Group": "Detect",
  "Message": "Searching for tablet 'XP-Pen Artist 16 Pro'",
  "StackTrace": null,
  "Level": 0,
  "Notification": false
},
{
  "Time": "2024-07-24T07:54:24.179875-04:00",
  "Group": "Detect",
  "Message": "Searching for tablet 'XP-Pen Artist 22HD'",
  "StackTrace": null,
  "Level": 0,
  "Notification": false
},
{
  "Time": "2024-07-24T07:54:24.1798835-04:00",
  "Group": "Detect",
  "Message": "Searching for tablet 'XP-Pen Artist Pro 16TP'",
  "StackTrace": null,
  "Level": 0,
  "Notification": false
},
{
  "Time": "2024-07-24T07:54:24.1798951-04:00",
  "Group": "Detect",
  "Message": "Searching for tablet 'XP-Pen CT1060'",
  "StackTrace": null,
  "Level": 0,
  "Notification": false
},
{
  "Time": "2024-07-24T07:54:24.1799036-04:00",
  "Group": "Detect",
  "Message": "Searching for tablet 'XP-Pen CT430'",
  "StackTrace": null,
  "Level": 0,
  "Notification": false
},
{
  "Time": "2024-07-24T07:54:24.179913-04:00",
  "Group": "Detect",
  "Message": "Searching for tablet 'XP-Pen CT640'",
  "StackTrace": null,
  "Level": 0,
  "Notification": false
},
{
  "Time": "2024-07-24T07:54:24.1799272-04:00",
  "Group": "Detect",
  "Message": "Searching for tablet 'XP-Pen Deco 01 V2 (variant 2)'",
  "StackTrace": null,
  "Level": 0,
  "Notification": false
},
{
  "Time": "2024-07-24T07:54:24.1799377-04:00",
  "Group": "Detect",
  "Message": "Searching for tablet 'XP-Pen Deco 01 V2'",
  "StackTrace": null,
  "Level": 0,
  "Notification": false
},
{
  "Time": "2024-07-24T07:54:24.1799509-04:00",
  "Group": "Detect",
  "Message": "Searching for tablet 'XP-Pen Deco 01'",
  "StackTrace": null,
  "Level": 0,
  "Notification": false
},
{
  "Time": "2024-07-24T07:54:24.1799595-04:00",
  "Group": "Detect",
  "Message": "Searching for tablet 'XP-Pen Deco 02'",
  "StackTrace": null,
  "Level": 0,
  "Notification": false
},
{
  "Time": "2024-07-24T07:54:24.1799684-04:00",
  "Group": "Detect",
  "Message": "Searching for tablet 'XP-Pen Deco 03'",
  "StackTrace": null,
  "Level": 0,
  "Notification": false
},
{
  "Time": "2024-07-24T07:54:24.1799802-04:00",
  "Group": "Detect",
  "Message": "Searching for tablet 'XP-Pen Deco L'",
  "StackTrace": null,
  "Level": 0,
  "Notification": false
},
{
  "Time": "2024-07-24T07:54:24.1799888-04:00",
  "Group": "Detect",
  "Message": "Searching for tablet 'XP-Pen Deco M'",
  "StackTrace": null,
  "Level": 0,
  "Notification": false
},
{
  "Time": "2024-07-24T07:54:24.1799972-04:00",
  "Group": "Detect",
  "Message": "Searching for tablet 'XP-Pen Deco mini4'",
  "StackTrace": null,
  "Level": 0,
  "Notification": false
},
{
  "Time": "2024-07-24T07:54:24.1800062-04:00",
  "Group": "Detect",
  "Message": "Searching for tablet 'XP-Pen Deco mini7'",
  "StackTrace": null,
  "Level": 0,
  "Notification": false
},
{
  "Time": "2024-07-24T07:54:24.1800232-04:00",
  "Group": "Detect",
  "Message": "Searching for tablet 'XP-Pen Deco Pro Medium'",
  "StackTrace": null,
  "Level": 0,
  "Notification": false
},
{
  "Time": "2024-07-24T07:54:24.1800323-04:00",
  "Group": "Detect",
  "Message": "Searching for tablet 'XP-Pen Deco Pro Small'",
  "StackTrace": null,
  "Level": 0,
  "Notification": false
},
{
  "Time": "2024-07-24T07:54:24.180044-04:00",
  "Group": "Detect",
  "Message": "Searching for tablet 'XP-Pen Deco Pro SW'",
  "StackTrace": null,
  "Level": 0,
  "Notification": false
},
{
  "Time": "2024-07-24T07:54:24.1800531-04:00",
  "Group": "Detect",
  "Message": "Searching for tablet 'XP-Pen Innovator 16'",
  "StackTrace": null,
  "Level": 0,
  "Notification": false
},
{
  "Time": "2024-07-24T07:54:24.1800619-04:00",
  "Group": "Detect",
  "Message": "Searching for tablet 'XP-Pen Star 03'",
  "StackTrace": null,
  "Level": 0,
  "Notification": false
},
{
  "Time": "2024-07-24T07:54:24.1800792-04:00",
  "Group": "Detect",
  "Message": "Searching for tablet 'XP-Pen Star 05 V3'",
  "StackTrace": null,
  "Level": 0,
  "Notification": false
},
{
  "Time": "2024-07-24T07:54:24.1800881-04:00",
  "Group": "Detect",
  "Message": "Searching for tablet 'XP-Pen Star 06'",
  "StackTrace": null,
  "Level": 0,
  "Notification": false
},
{
  "Time": "2024-07-24T07:54:24.1800968-04:00",
  "Group": "Detect",
  "Message": "Searching for tablet 'XP-Pen Star 06C'",
  "StackTrace": null,
  "Level": 0,
  "Notification": false
},
{
  "Time": "2024-07-24T07:54:24.1801099-04:00",
  "Group": "Detect",
  "Message": "Searching for tablet 'XP-Pen Star G430'",
  "StackTrace": null,
  "Level": 0,
  "Notification": false
},
{
  "Time": "2024-07-24T07:54:24.1801201-04:00",
  "Group": "Detect",
  "Message": "Searching for tablet 'XP-Pen Star G430S V2'",
  "StackTrace": null,
  "Level": 0,
  "Notification": false
},
{
  "Time": "2024-07-24T07:54:24.1801289-04:00",
  "Group": "Detect",
  "Message": "Searching for tablet 'XP-Pen Star G430S'",
  "StackTrace": null,
  "Level": 0,
  "Notification": false
},
{
  "Time": "2024-07-24T07:54:24.1801411-04:00",
  "Group": "Detect",
  "Message": "Searching for tablet 'XP-Pen Star G540 Pro'",
  "StackTrace": null,
  "Level": 0,
  "Notification": false
},
{
  "Time": "2024-07-24T07:54:24.1801501-04:00",
  "Group": "Detect",
  "Message": "Searching for tablet 'XP-Pen Star G540'",
  "StackTrace": null,
  "Level": 0,
  "Notification": false
},
{
  "Time": "2024-07-24T07:54:24.1801639-04:00",
  "Group": "Detect",
  "Message": "Searching for tablet 'XP-Pen Star G640 V2'",
  "StackTrace": null,
  "Level": 0,
  "Notification": false
},
{
  "Time": "2024-07-24T07:54:24.1801759-04:00",
  "Group": "Detect",
  "Message": "Searching for tablet 'XP-Pen Star G640'",
  "StackTrace": null,
  "Level": 0,
  "Notification": false
},
{
  "Time": "2024-07-24T07:54:24.1801848-04:00",
  "Group": "Detect",
  "Message": "Searching for tablet 'XP-Pen Star G640S'",
  "StackTrace": null,
  "Level": 0,
  "Notification": false
},
{
  "Time": "2024-07-24T07:54:24.1801987-04:00",
  "Group": "Detect",
  "Message": "Searching for tablet 'XP-Pen Star G960'",
  "StackTrace": null,
  "Level": 0,
  "Notification": false
},
{
  "Time": "2024-07-24T07:54:24.180208-04:00",
  "Group": "Detect",
  "Message": "Searching for tablet 'XP-Pen Star G960S Plus'",
  "StackTrace": null,
  "Level": 0,
  "Notification": false
},
{
  "Time": "2024-07-24T07:54:24.1802172-04:00",
  "Group": "Detect",
  "Message": "Searching for tablet 'XP-Pen Star G960S'",
  "StackTrace": null,
  "Level": 0,
  "Notification": false
},
{
  "Time": "2024-07-24T07:54:24.29646-04:00",
  "Group": "Evdev",
  "Message": "Successfully initialized virtual pressure sensitive tablet. (code NONE)",
  "StackTrace": null,
  "Level": 0,
  "Notification": false
},
{
  "Time": "2024-07-24T07:54:24.3008766-04:00",
  "Group": "Wacom CTH-480",
  "Message": "Output mode: Artist Mode",
  "StackTrace": null,
  "Level": 1,
  "Notification": false
},
{
  "Time": "2024-07-24T07:54:24.3033199-04:00",
  "Group": "Wacom CTH-480",
  "Message": "Display area: [5120x1440@<2560, 720>:0°],",
  "StackTrace": null,
  "Level": 1,
  "Notification": false
},
{
  "Time": "2024-07-24T07:54:24.3034783-04:00",
  "Group": "Wacom CTH-480",
  "Message": "Tablet area: [74x41.625@<37, 20.8125>:0°],",
  "StackTrace": null,
  "Level": 1,
  "Notification": false
},
{
  "Time": "2024-07-24T07:54:24.3035778-04:00",
  "Group": "Wacom CTH-480",
  "Message": "Clipping: Enabled",
  "StackTrace": null,
  "Level": 1,
  "Notification": false
},
{
  "Time": "2024-07-24T07:54:24.3036688-04:00",
  "Group": "Wacom CTH-480",
  "Message": "Ignoring reports outside area: Disabled",
  "StackTrace": null,
  "Level": 1,
  "Notification": false
},
{
  "Time": "2024-07-24T07:54:24.3088516-04:00",
  "Group": "Wacom CTH-480",
  "Message": "Tip Binding: [Mouse Button Binding: Left]@0%",
  "StackTrace": null,
  "Level": 1,
  "Notification": false
},
{
  "Time": "2024-07-24T07:54:24.3185642-04:00",
  "Group": "Wacom CTH-480",
  "Message": "Filters: TabletDriverFilters.Hawku.Smoothing, OpenTabletDriver.Plugin.NoiseReduction",
  "StackTrace": null,
  "Level": 1,
  "Notification": false
},
{
  "Time": "2024-07-24T07:54:24.318601-04:00",
  "Group": "Settings",
  "Message": "Driver is enabled.",
  "StackTrace": null,
  "Level": 1,
  "Notification": false
},
