[
{
  "Time": "2024-07-21T11:54:47.3398803-04:00",
  "Group": "Plugin",
  "Message": "Loading plugin 'HawkuFilters'",
  "StackTrace": null,
  "Level": 0,
  "Notification": false
},
{
  "Time": "2024-07-21T11:54:47.3597811-04:00",
  "Group": "Detect",
  "Message": "Searching for tablets...",
  "StackTrace": null,
  "Level": 1,
  "Notification": false
},
{
  "Time": "2024-07-21T11:54:47.3684249-04:00",
  "Group": "Detect",
  "Message": "Searching for tablet '10moon 1060N'",
  "StackTrace": null,
  "Level": 0,
  "Notification": false
},
{
  "Time": "2024-07-21T11:54:47.3693733-04:00",
  "Group": "Detect",
  "Message": "Searching for tablet 'Acepen AP 1060'",
  "StackTrace": null,
  "Level": 0,
  "Notification": false
},
{
  "Time": "2024-07-21T11:54:47.3694012-04:00",
  "Group": "Detect",
  "Message": "Searching for tablet 'Adesso Cybertablet K8'",
  "StackTrace": null,
  "Level": 0,
  "Notification": false
},
{
  "Time": "2024-07-21T11:54:47.3694248-04:00",
  "Group": "Detect",
  "Message": "Searching for tablet 'Artisul A1201'",
  "StackTrace": null,
  "Level": 0,
  "Notification": false
},
{
  "Time": "2024-07-21T11:54:47.3694358-04:00",
  "Group": "Detect",
  "Message": "Searching for tablet 'Artisul AP604'",
  "StackTrace": null,
  "Level": 0,
  "Notification": false
},
{
  "Time": "2024-07-21T11:54:47.3694444-04:00",
  "Group": "Detect",
  "Message": "Searching for tablet 'Artisul M0610 Pro'",
  "StackTrace": null,
  "Level": 0,
  "Notification": false
},
{
  "Time": "2024-07-21T11:54:47.3694574-04:00",
  "Group": "Detect",
  "Message": "Searching for tablet 'FlooGoo FMA100'",
  "StackTrace": null,
  "Level": 0,
  "Notification": false
},
{
  "Time": "2024-07-21T11:54:47.3694661-04:00",
  "Group": "Detect",
  "Message": "Searching for tablet 'Gaomon 1060 Pro'",
  "StackTrace": null,
  "Level": 0,
  "Notification": false
},
{
  "Time": "2024-07-21T11:54:47.369481-04:00",
  "Group": "Detect",
  "Message": "Searching for tablet 'Gaomon GM116HD'",
  "StackTrace": null,
  "Level": 0,
  "Notification": false
},
{
  "Time": "2024-07-21T11:54:47.3694897-04:00",
  "Group": "Detect",
  "Message": "Searching for tablet 'Gaomon GM156HD'",
  "StackTrace": null,
  "Level": 0,
  "Notification": false
},
{
  "Time": "2024-07-21T11:54:47.3694985-04:00",
  "Group": "Detect",
  "Message": "Searching for tablet 'Gaomon M106K Pro'",
  "StackTrace": null,
  "Level": 0,
  "Notification": false
},
{
  "Time": "2024-07-21T11:54:47.3695117-04:00",
  "Group": "Detect",
  "Message": "Searching for tablet 'Gaomon M106K'",
  "StackTrace": null,
  "Level": 0,
  "Notification": false
},
{
  "Time": "2024-07-21T11:54:47.3695202-04:00",
  "Group": "Detect",
  "Message": "Searching for tablet 'Gaomon M10K Pro'",
  "StackTrace": null,
  "Level": 0,
  "Notification": false
},
{
  "Time": "2024-07-21T11:54:47.369529-04:00",
  "Group": "Detect",
  "Message": "Searching for tablet 'Gaomon M10K'",
  "StackTrace": null,
  "Level": 0,
  "Notification": false
},
{
  "Time": "2024-07-21T11:54:47.3695401-04:00",
  "Group": "Detect",
  "Message": "Searching for tablet 'Gaomon M1220'",
  "StackTrace": null,
  "Level": 0,
  "Notification": false
},
{
  "Time": "2024-07-21T11:54:47.3695486-04:00",
  "Group": "Detect",
  "Message": "Searching for tablet 'Gaomon M1230'",
  "StackTrace": null,
  "Level": 0,
  "Notification": false
},
{
  "Time": "2024-07-21T11:54:47.3695581-04:00",
  "Group": "Detect",
  "Message": "Searching for tablet 'Gaomon M6'",
  "StackTrace": null,
  "Level": 0,
  "Notification": false
},
{
  "Time": "2024-07-21T11:54:47.3695725-04:00",
  "Group": "Detect",
  "Message": "Searching for tablet 'Gaomon PD1161'",
  "StackTrace": null,
  "Level": 0,
  "Notification": false
},
{
  "Time": "2024-07-21T11:54:47.3695812-04:00",
  "Group": "Detect",
  "Message": "Searching for tablet 'Gaomon PD156 Pro'",
  "StackTrace": null,
  "Level": 0,
  "Notification": false
},
{
  "Time": "2024-07-21T11:54:47.3695902-04:00",
  "Group": "Detect",
  "Message": "Searching for tablet 'Gaomon PD1560'",
  "StackTrace": null,
  "Level": 0,
  "Notification": false
},
{
  "Time": "2024-07-21T11:54:47.3696018-04:00",
  "Group": "Detect",
  "Message": "Searching for tablet 'Gaomon PD1561'",
  "StackTrace": null,
  "Level": 0,
  "Notification": false
},
{
  "Time": "2024-07-21T11:54:47.3696103-04:00",
  "Group": "Detect",
  "Message": "Searching for tablet 'Gaomon PD2200'",
  "StackTrace": null,
  "Level": 0,
  "Notification": false
},
{
  "Time": "2024-07-21T11:54:47.3696188-04:00",
  "Group": "Detect",
  "Message": "Searching for tablet 'Gaomon S56K'",
  "StackTrace": null,
  "Level": 0,
  "Notification": false
},
{
  "Time": "2024-07-21T11:54:47.3696323-04:00",
  "Group": "Detect",
  "Message": "Searching for tablet 'Gaomon S620'",
  "StackTrace": null,
  "Level": 0,
  "Notification": false
},
{
  "Time": "2024-07-21T11:54:47.3696426-04:00",
  "Group": "Detect",
  "Message": "Searching for tablet 'Gaomon S630'",
  "StackTrace": null,
  "Level": 0,
  "Notification": false
},
{
  "Time": "2024-07-21T11:54:47.3696513-04:00",
  "Group": "Detect",
  "Message": "Searching for tablet 'Gaomon S830'",
  "StackTrace": null,
  "Level": 0,
  "Notification": false
},
{
  "Time": "2024-07-21T11:54:47.3696623-04:00",
  "Group": "Detect",
  "Message": "Searching for tablet 'Genius G-Pen 560'",
  "StackTrace": null,
  "Level": 0,
  "Notification": false
},
{
  "Time": "2024-07-21T11:54:47.369671-04:00",
  "Group": "Detect",
  "Message": "Searching for tablet 'Genius i405x'",
  "StackTrace": null,
  "Level": 0,
  "Notification": false
},
{
  "Time": "2024-07-21T11:54:47.3696794-04:00",
  "Group": "Detect",
  "Message": "Searching for tablet 'Genius i608x'",
  "StackTrace": null,
  "Level": 0,
  "Notification": false
},
{
  "Time": "2024-07-21T11:54:47.3697132-04:00",
  "Group": "Detect",
  "Message": "Searching for tablet 'Huion 420'",
  "StackTrace": null,
  "Level": 0,
  "Notification": false
},
{
  "Time": "2024-07-21T11:54:47.3697253-04:00",
  "Group": "Detect",
  "Message": "Searching for tablet 'Huion G10T'",
  "StackTrace": null,
  "Level": 0,
  "Notification": false
},
{
  "Time": "2024-07-21T11:54:47.3697338-04:00",
  "Group": "Detect",
  "Message": "Searching for tablet 'Huion G930L'",
  "StackTrace": null,
  "Level": 0,
  "Notification": false
},
{
  "Time": "2024-07-21T11:54:47.3697458-04:00",
  "Group": "Detect",
  "Message": "Searching for tablet 'Huion GC610'",
  "StackTrace": null,
  "Level": 0,
  "Notification": false
},
{
  "Time": "2024-07-21T11:54:47.3697554-04:00",
  "Group": "Detect",
  "Message": "Searching for tablet 'Huion GT-220 V2'",
  "StackTrace": null,
  "Level": 0,
  "Notification": false
},
{
  "Time": "2024-07-21T11:54:47.3697641-04:00",
  "Group": "Detect",
  "Message": "Searching for tablet 'Huion GT-221 Pro'",
  "StackTrace": null,
  "Level": 0,
  "Notification": false
},
{
  "Time": "2024-07-21T11:54:47.3697757-04:00",
  "Group": "Detect",
  "Message": "Searching for tablet 'Huion GT-221'",
  "StackTrace": null,
  "Level": 0,
  "Notification": false
},
{
  "Time": "2024-07-21T11:54:47.3697846-04:00",
  "Group": "Detect",
  "Message": "Searching for tablet 'Huion H1060P'",
  "StackTrace": null,
  "Level": 0,
  "Notification": false
},
{
  "Time": "2024-07-21T11:54:47.3697956-04:00",
  "Group": "Detect",
  "Message": "Searching for tablet 'Huion H1161'",
  "StackTrace": null,
  "Level": 0,
  "Notification": false
},
{
  "Time": "2024-07-21T11:54:47.3698078-04:00",
  "Group": "Detect",
  "Message": "Searching for tablet 'Huion H320M'",
  "StackTrace": null,
  "Level": 0,
  "Notification": false
},
{
  "Time": "2024-07-21T11:54:47.3698175-04:00",
  "Group": "Detect",
  "Message": "Searching for tablet 'Huion H420'",
  "StackTrace": null,
  "Level": 0,
  "Notification": false
},
{
  "Time": "2024-07-21T11:54:47.3698329-04:00",
  "Group": "Detect",
  "Message": "Searching for tablet 'Huion H420X'",
  "StackTrace": null,
  "Level": 0,
  "Notification": false
},
{
  "Time": "2024-07-21T11:54:47.369843-04:00",
  "Group": "Detect",
  "Message": "Searching for tablet 'Huion H430P'",
  "StackTrace": null,
  "Level": 0,
  "Notification": false
},
{
  "Time": "2024-07-21T11:54:47.3698576-04:00",
  "Group": "Detect",
  "Message": "Searching for tablet 'Huion H580X'",
  "StackTrace": null,
  "Level": 0,
  "Notification": false
},
{
  "Time": "2024-07-21T11:54:47.369866-04:00",
  "Group": "Detect",
  "Message": "Searching for tablet 'Huion H610 Pro V2'",
  "StackTrace": null,
  "Level": 0,
  "Notification": false
},
{
  "Time": "2024-07-21T11:54:47.3698796-04:00",
  "Group": "Detect",
  "Message": "Searching for tablet 'Huion H610 Pro V3'",
  "StackTrace": null,
  "Level": 0,
  "Notification": false
},
{
  "Time": "2024-07-21T11:54:47.3698884-04:00",
  "Group": "Detect",
  "Message": "Searching for tablet 'Huion H610 Pro'",
  "StackTrace": null,
  "Level": 0,
  "Notification": false
},
{
  "Time": "2024-07-21T11:54:47.3699013-04:00",
  "Group": "Detect",
  "Message": "Searching for tablet 'Huion H610X'",
  "StackTrace": null,
  "Level": 0,
  "Notification": false
},
{
  "Time": "2024-07-21T11:54:47.369911-04:00",
  "Group": "Detect",
  "Message": "Searching for tablet 'Huion H640P'",
  "StackTrace": null,
  "Level": 0,
  "Notification": false
},
{
  "Time": "2024-07-21T11:54:47.3699253-04:00",
  "Group": "Detect",
  "Message": "Searching for tablet 'Huion H641P'",
  "StackTrace": null,
  "Level": 0,
  "Notification": false
},
{
  "Time": "2024-07-21T11:54:47.3699336-04:00",
  "Group": "Detect",
  "Message": "Searching for tablet 'Huion H642'",
  "StackTrace": null,
  "Level": 0,
  "Notification": false
},
{
  "Time": "2024-07-21T11:54:47.3699419-04:00",
  "Group": "Detect",
  "Message": "Searching for tablet 'Huion H690'",
  "StackTrace": null,
  "Level": 0,
  "Notification": false
},
{
  "Time": "2024-07-21T11:54:47.3699546-04:00",
  "Group": "Detect",
  "Message": "Searching for tablet 'Huion H950P'",
  "StackTrace": null,
  "Level": 0,
  "Notification": false
},
{
  "Time": "2024-07-21T11:54:47.369968-04:00",
  "Group": "Detect",
  "Message": "Searching for tablet 'Huion HC16'",
  "StackTrace": null,
  "Level": 0,
  "Notification": false
},
{
  "Time": "2024-07-21T11:54:47.3699775-04:00",
  "Group": "Detect",
  "Message": "Searching for tablet 'Huion HS610'",
  "StackTrace": null,
  "Level": 0,
  "Notification": false
},
{
  "Time": "2024-07-21T11:54:47.3699871-04:00",
  "Group": "Detect",
  "Message": "Searching for tablet 'Huion HS611'",
  "StackTrace": null,
  "Level": 0,
  "Notification": false
},
{
  "Time": "2024-07-21T11:54:47.3699992-04:00",
  "Group": "Detect",
  "Message": "Searching for tablet 'Huion HS64'",
  "StackTrace": null,
  "Level": 0,
  "Notification": false
},
{
  "Time": "2024-07-21T11:54:47.3700076-04:00",
  "Group": "Detect",
  "Message": "Searching for tablet 'Huion HS95'",
  "StackTrace": null,
  "Level": 0,
  "Notification": false
},
{
  "Time": "2024-07-21T11:54:47.3700159-04:00",
  "Group": "Detect",
  "Message": "Searching for tablet 'Huion Kamvas 12'",
  "StackTrace": null,
  "Level": 0,
  "Notification": false
},
{
  "Time": "2024-07-21T11:54:47.3700295-04:00",
  "Group": "Detect",
  "Message": "Searching for tablet 'Huion Kamvas 13'",
  "StackTrace": null,
  "Level": 0,
  "Notification": false
},
{
  "Time": "2024-07-21T11:54:47.3700382-04:00",
  "Group": "Detect",
  "Message": "Searching for tablet 'Huion Kamvas 16 (2021)'",
  "StackTrace": null,
  "Level": 0,
  "Notification": false
},
{
  "Time": "2024-07-21T11:54:47.3700473-04:00",
  "Group": "Detect",
  "Message": "Searching for tablet 'Huion Kamvas 16'",
  "StackTrace": null,
  "Level": 0,
  "Notification": false
},
{
  "Time": "2024-07-21T11:54:47.3700588-04:00",
  "Group": "Detect",
  "Message": "Searching for tablet 'Huion Kamvas 20'",
  "StackTrace": null,
  "Level": 0,
  "Notification": false
},
{
  "Time": "2024-07-21T11:54:47.3700675-04:00",
  "Group": "Detect",
  "Message": "Searching for tablet 'Huion Kamvas 22 Plus'",
  "StackTrace": null,
  "Level": 0,
  "Notification": false
},
{
  "Time": "2024-07-21T11:54:47.3700764-04:00",
  "Group": "Detect",
  "Message": "Searching for tablet 'Huion Kamvas 22'",
  "StackTrace": null,
  "Level": 0,
  "Notification": false
},
{
  "Time": "2024-07-21T11:54:47.370085-04:00",
  "Group": "Detect",
  "Message": "Searching for tablet 'Huion Kamvas 24 Plus'",
  "StackTrace": null,
  "Level": 0,
  "Notification": false
},
{
  "Time": "2024-07-21T11:54:47.3700967-04:00",
  "Group": "Detect",
  "Message": "Searching for tablet 'Huion Kamvas Pro 12'",
  "StackTrace": null,
  "Level": 0,
  "Notification": false
},
{
  "Time": "2024-07-21T11:54:47.3701055-04:00",
  "Group": "Detect",
  "Message": "Searching for tablet 'Huion Kamvas Pro 13 (2.5k)'",
  "StackTrace": null,
  "Level": 0,
  "Notification": false
},
{
  "Time": "2024-07-21T11:54:47.3701149-04:00",
  "Group": "Detect",
  "Message": "Searching for tablet 'Huion Kamvas Pro 13'",
  "StackTrace": null,
  "Level": 0,
  "Notification": false
},
{
  "Time": "2024-07-21T11:54:47.3701294-04:00",
  "Group": "Detect",
  "Message": "Searching for tablet 'Huion Kamvas Pro 16 (2.5k)'",
  "StackTrace": null,
  "Level": 0,
  "Notification": false
},
{
  "Time": "2024-07-21T11:54:47.3701404-04:00",
  "Group": "Detect",
  "Message": "Searching for tablet 'Huion Kamvas Pro 16'",
  "StackTrace": null,
  "Level": 0,
  "Notification": false
},
{
  "Time": "2024-07-21T11:54:47.3701576-04:00",
  "Group": "Detect",
  "Message": "Searching for tablet 'Huion Kamvas Pro 20'",
  "StackTrace": null,
  "Level": 0,
  "Notification": false
},
{
  "Time": "2024-07-21T11:54:47.3701673-04:00",
  "Group": "Detect",
  "Message": "Searching for tablet 'Huion Kamvas Pro 24 (4K)'",
  "StackTrace": null,
  "Level": 0,
  "Notification": false
},
{
  "Time": "2024-07-21T11:54:47.3701768-04:00",
  "Group": "Detect",
  "Message": "Searching for tablet 'Huion Kamvas Pro 24'",
  "StackTrace": null,
  "Level": 0,
  "Notification": false
},
{
  "Time": "2024-07-21T11:54:47.370186-04:00",
  "Group": "Detect",
  "Message": "Searching for tablet 'Huion New 1060 Plus (2048)'",
  "StackTrace": null,
  "Level": 0,
  "Notification": false
},
{
  "Time": "2024-07-21T11:54:47.3702001-04:00",
  "Group": "Detect",
  "Message": "Searching for tablet 'Huion New 1060 Plus'",
  "StackTrace": null,
  "Level": 0,
  "Notification": false
},
{
  "Time": "2024-07-21T11:54:47.3702107-04:00",
  "Group": "Detect",
  "Message": "Searching for tablet 'Huion Q11K V2'",
  "StackTrace": null,
  "Level": 0,
  "Notification": false
},
{
  "Time": "2024-07-21T11:54:47.3702224-04:00",
  "Group": "Detect",
  "Message": "Searching for tablet 'Huion Q11K'",
  "StackTrace": null,
  "Level": 0,
  "Notification": false
},
{
  "Time": "2024-07-21T11:54:47.3702324-04:00",
  "Group": "Detect",
  "Message": "Searching for tablet 'Huion Q620M'",
  "StackTrace": null,
  "Level": 0,
  "Notification": false
},
{
  "Time": "2024-07-21T11:54:47.3702409-04:00",
  "Group": "Detect",
  "Message": "Searching for tablet 'Huion Q630M'",
  "StackTrace": null,
  "Level": 0,
  "Notification": false
},
{
  "Time": "2024-07-21T11:54:47.3702523-04:00",
  "Group": "Detect",
  "Message": "Searching for tablet 'Huion RDS-160'",
  "StackTrace": null,
  "Level": 0,
  "Notification": false
},
{
  "Time": "2024-07-21T11:54:47.3702611-04:00",
  "Group": "Detect",
  "Message": "Searching for tablet 'Huion RTE-100'",
  "StackTrace": null,
  "Level": 0,
  "Notification": false
},
{
  "Time": "2024-07-21T11:54:47.3702704-04:00",
  "Group": "Detect",
  "Message": "Searching for tablet 'Huion RTM-500'",
  "StackTrace": null,
  "Level": 0,
  "Notification": false
},
{
  "Time": "2024-07-21T11:54:47.3702864-04:00",
  "Group": "Detect",
  "Message": "Searching for tablet 'Huion WH1409 V2'",
  "StackTrace": null,
  "Level": 0,
  "Notification": false
},
{
  "Time": "2024-07-21T11:54:47.3702958-04:00",
  "Group": "Detect",
  "Message": "Searching for tablet 'Huion WH1409'",
  "StackTrace": null,
  "Level": 0,
  "Notification": false
},
{
  "Time": "2024-07-21T11:54:47.3703046-04:00",
  "Group": "Detect",
  "Message": "Searching for tablet 'KENTING K5540'",
  "StackTrace": null,
  "Level": 0,
  "Notification": false
},
{
  "Time": "2024-07-21T11:54:47.370313-04:00",
  "Group": "Detect",
  "Message": "Searching for tablet 'LifeTec LT9570'",
  "StackTrace": null,
  "Level": 0,
  "Notification": false
},
{
  "Time": "2024-07-21T11:54:47.3703243-04:00",
  "Group": "Detect",
  "Message": "Searching for tablet 'Monoprice 10594'",
  "StackTrace": null,
  "Level": 0,
  "Notification": false
},
{
  "Time": "2024-07-21T11:54:47.3703331-04:00",
  "Group": "Detect",
  "Message": "Searching for tablet 'Monoprice MP1060-HA60'",
  "StackTrace": null,
  "Level": 0,
  "Notification": false
},
{
  "Time": "2024-07-21T11:54:47.370342-04:00",
  "Group": "Detect",
  "Message": "Searching for tablet 'Parblo A609'",
  "StackTrace": null,
  "Level": 0,
  "Notification": false
},
{
  "Time": "2024-07-21T11:54:47.370353-04:00",
  "Group": "Detect",
  "Message": "Searching for tablet 'Parblo A610 Pro'",
  "StackTrace": null,
  "Level": 0,
  "Notification": false
},
{
  "Time": "2024-07-21T11:54:47.3703616-04:00",
  "Group": "Detect",
  "Message": "Searching for tablet 'Parblo A640 V2'",
  "StackTrace": null,
  "Level": 0,
  "Notification": false
},
{
  "Time": "2024-07-21T11:54:47.3703701-04:00",
  "Group": "Detect",
  "Message": "Searching for tablet 'Parblo Intangbo M'",
  "StackTrace": null,
  "Level": 0,
  "Notification": false
},
{
  "Time": "2024-07-21T11:54:47.3703825-04:00",
  "Group": "Detect",
  "Message": "Searching for tablet 'Parblo Intangbo S'",
  "StackTrace": null,
  "Level": 0,
  "Notification": false
},
{
  "Time": "2024-07-21T11:54:47.3703924-04:00",
  "Group": "Detect",
  "Message": "Searching for tablet 'Parblo Ninos M'",
  "StackTrace": null,
  "Level": 0,
  "Notification": false
},
{
  "Time": "2024-07-21T11:54:47.370402-04:00",
  "Group": "Detect",
  "Message": "Searching for tablet 'Parblo Ninos N4'",
  "StackTrace": null,
  "Level": 0,
  "Notification": false
},
{
  "Time": "2024-07-21T11:54:47.3704134-04:00",
  "Group": "Detect",
  "Message": "Searching for tablet 'Parblo Ninos N7'",
  "StackTrace": null,
  "Level": 0,
  "Notification": false
},
{
  "Time": "2024-07-21T11:54:47.3704231-04:00",
  "Group": "Detect",
  "Message": "Searching for tablet 'Parblo Ninos S'",
  "StackTrace": null,
  "Level": 0,
  "Notification": false
},
{
  "Time": "2024-07-21T11:54:47.3704357-04:00",
  "Group": "Detect",
  "Message": "Searching for tablet 'RobotPen T9A'",
  "StackTrace": null,
  "Level": 0,
  "Notification": false
},
{
  "Time": "2024-07-21T11:54:47.3704443-04:00",
  "Group": "Detect",
  "Message": "Searching for tablet 'UC-Logic 1060N'",
  "StackTrace": null,
  "Level": 0,
  "Notification": false
},
{
  "Time": "2024-07-21T11:54:47.370453-04:00",
  "Group": "Detect",
  "Message": "Searching for tablet 'UC-Logic PF1209'",
  "StackTrace": null,
  "Level": 0,
  "Notification": false
},
{
  "Time": "2024-07-21T11:54:47.3704616-04:00",
  "Group": "Detect",
  "Message": "Searching for tablet 'UGEE S640'",
  "StackTrace": null,
  "Level": 0,
  "Notification": false
},
{
  "Time": "2024-07-21T11:54:47.3704741-04:00",
  "Group": "Detect",
  "Message": "Searching for tablet 'UGEE U1200'",
  "StackTrace": null,
  "Level": 0,
  "Notification": false
},
{
  "Time": "2024-07-21T11:54:47.3704824-04:00",
  "Group": "Detect",
  "Message": "Searching for tablet 'UGEE U1600'",
  "StackTrace": null,
  "Level": 0,
  "Notification": false
},
{
  "Time": "2024-07-21T11:54:47.3704911-04:00",
  "Group": "Detect",
  "Message": "Searching for tablet 'UGTABLET M708 V2'",
  "StackTrace": null,
  "Level": 0,
  "Notification": false
},
{
  "Time": "2024-07-21T11:54:47.3705037-04:00",
  "Group": "Detect",
  "Message": "Searching for tablet 'UGTABLET M708'",
  "StackTrace": null,
  "Level": 0,
  "Notification": false
},
{
  "Time": "2024-07-21T11:54:47.3705124-04:00",
  "Group": "Detect",
  "Message": "Searching for tablet 'VEIKK A15 Pro'",
  "StackTrace": null,
  "Level": 0,
  "Notification": false
},
{
  "Time": "2024-07-21T11:54:47.3705222-04:00",
  "Group": "Detect",
  "Message": "Searching for tablet 'VEIKK A15 V2'",
  "StackTrace": null,
  "Level": 0,
  "Notification": false
},
{
  "Time": "2024-07-21T11:54:47.3705395-04:00",
  "Group": "Detect",
  "Message": "Searching for tablet 'VEIKK A15'",
  "StackTrace": null,
  "Level": 0,
  "Notification": false
},
{
  "Time": "2024-07-21T11:54:47.3705485-04:00",
  "Group": "Detect",
  "Message": "Searching for tablet 'VEIKK A30 V2'",
  "StackTrace": null,
  "Level": 0,
  "Notification": false
},
{
  "Time": "2024-07-21T11:54:47.3705568-04:00",
  "Group": "Detect",
  "Message": "Searching for tablet 'VEIKK A30'",
  "StackTrace": null,
  "Level": 0,
  "Notification": false
},
{
  "Time": "2024-07-21T11:54:47.3705681-04:00",
  "Group": "Detect",
  "Message": "Searching for tablet 'VEIKK A50 V2'",
  "StackTrace": null,
  "Level": 0,
  "Notification": false
},
{
  "Time": "2024-07-21T11:54:47.3705774-04:00",
  "Group": "Detect",
  "Message": "Searching for tablet 'VEIKK A50'",
  "StackTrace": null,
  "Level": 0,
  "Notification": false
},
{
  "Time": "2024-07-21T11:54:47.3705858-04:00",
  "Group": "Detect",
  "Message": "Searching for tablet 'VEIKK S640 V2'",
  "StackTrace": null,
  "Level": 0,
  "Notification": false
},
{
  "Time": "2024-07-21T11:54:47.3705946-04:00",
  "Group": "Detect",
  "Message": "Searching for tablet 'VEIKK S640'",
  "StackTrace": null,
  "Level": 0,
  "Notification": false
},
{
  "Time": "2024-07-21T11:54:47.3706062-04:00",
  "Group": "Detect",
  "Message": "Searching for tablet 'VEIKK VK1060'",
  "StackTrace": null,
  "Level": 0,
  "Notification": false
},
{
  "Time": "2024-07-21T11:54:47.3706149-04:00",
  "Group": "Detect",
  "Message": "Searching for tablet 'VEIKK VK1060PRO'",
  "StackTrace": null,
  "Level": 0,
  "Notification": false
},
{
  "Time": "2024-07-21T11:54:47.3706235-04:00",
  "Group": "Detect",
  "Message": "Searching for tablet 'VEIKK VK430 V2'",
  "StackTrace": null,
  "Level": 0,
  "Notification": false
},
{
  "Time": "2024-07-21T11:54:47.3706323-04:00",
  "Group": "Detect",
  "Message": "Searching for tablet 'VEIKK VK430'",
  "StackTrace": null,
  "Level": 0,
  "Notification": false
},
{
  "Time": "2024-07-21T11:54:47.3706433-04:00",
  "Group": "Detect",
  "Message": "Searching for tablet 'VEIKK VK640'",
  "StackTrace": null,
  "Level": 0,
  "Notification": false
},
{
  "Time": "2024-07-21T11:54:47.3706523-04:00",
  "Group": "Detect",
  "Message": "Searching for tablet 'VEIKK Viola (VO1060)'",
  "StackTrace": null,
  "Level": 0,
  "Notification": false
},
{
  "Time": "2024-07-21T11:54:47.3706619-04:00",
  "Group": "Detect",
  "Message": "Searching for tablet 'ViewSonic Woodpad PF0730'",
  "StackTrace": null,
  "Level": 0,
  "Notification": false
},
{
  "Time": "2024-07-21T11:54:47.3706774-04:00",
  "Group": "Detect",
  "Message": "Searching for tablet 'Wacom CTC-4110WL'",
  "StackTrace": null,
  "Level": 0,
  "Notification": false
},
{
  "Time": "2024-07-21T11:54:47.3706867-04:00",
  "Group": "Detect",
  "Message": "Searching for tablet 'Wacom CTC-6110WL'",
  "StackTrace": null,
  "Level": 0,
  "Notification": false
},
{
  "Time": "2024-07-21T11:54:47.3706987-04:00",
  "Group": "Detect",
  "Message": "Searching for tablet 'Wacom CTE-430'",
  "StackTrace": null,
  "Level": 0,
  "Notification": false
},
{
  "Time": "2024-07-21T11:54:47.3708283-04:00",
  "Group": "Detect",
  "Message": "Searching for tablet 'Wacom CTE-440'",
  "StackTrace": null,
  "Level": 0,
  "Notification": false
},
{
  "Time": "2024-07-21T11:54:47.3708512-04:00",
  "Group": "Detect",
  "Message": "Searching for tablet 'Wacom CTE-450'",
  "StackTrace": null,
  "Level": 0,
  "Notification": false
},
{
  "Time": "2024-07-21T11:54:47.3708635-04:00",
  "Group": "Detect",
  "Message": "Searching for tablet 'Wacom CTE-460'",
  "StackTrace": null,
  "Level": 0,
  "Notification": false
},
{
  "Time": "2024-07-21T11:54:47.3708736-04:00",
  "Group": "Detect",
  "Message": "Searching for tablet 'Wacom CTE-630'",
  "StackTrace": null,
  "Level": 0,
  "Notification": false
},
{
  "Time": "2024-07-21T11:54:47.3708832-04:00",
  "Group": "Detect",
  "Message": "Searching for tablet 'Wacom CTE-640'",
  "StackTrace": null,
  "Level": 0,
  "Notification": false
},
{
  "Time": "2024-07-21T11:54:47.3708961-04:00",
  "Group": "Detect",
  "Message": "Searching for tablet 'Wacom CTE-650'",
  "StackTrace": null,
  "Level": 0,
  "Notification": false
},
{
  "Time": "2024-07-21T11:54:47.3709047-04:00",
  "Group": "Detect",
  "Message": "Searching for tablet 'Wacom CTE-660'",
  "StackTrace": null,
  "Level": 0,
  "Notification": false
},
{
  "Time": "2024-07-21T11:54:47.3709133-04:00",
  "Group": "Detect",
  "Message": "Searching for tablet 'Wacom CTF-430'",
  "StackTrace": null,
  "Level": 0,
  "Notification": false
},
{
  "Time": "2024-07-21T11:54:47.3709249-04:00",
  "Group": "Detect",
  "Message": "Searching for tablet 'Wacom CTH-301'",
  "StackTrace": null,
  "Level": 0,
  "Notification": false
},
{
  "Time": "2024-07-21T11:54:47.3709334-04:00",
  "Group": "Detect",
  "Message": "Searching for tablet 'Wacom CTH-460'",
  "StackTrace": null,
  "Level": 0,
  "Notification": false
},
{
  "Time": "2024-07-21T11:54:47.3709477-04:00",
  "Group": "Detect",
  "Message": "Searching for tablet 'Wacom CTH-461'",
  "StackTrace": null,
  "Level": 0,
  "Notification": false
},
{
  "Time": "2024-07-21T11:54:47.3709599-04:00",
  "Group": "Detect",
  "Message": "Searching for tablet 'Wacom CTH-470'",
  "StackTrace": null,
  "Level": 0,
  "Notification": false
},
{
  "Time": "2024-07-21T11:54:47.3709731-04:00",
  "Group": "Detect",
  "Message": "Searching for tablet 'Wacom CTH-480'",
  "StackTrace": null,
  "Level": 0,
  "Notification": false
},
{
  "Time": "2024-07-21T11:54:47.6073374-04:00",
  "Group": "Device",
  "Message": "Initializing device 'Intuos PTS' /sys/devices/pci0000:00/0000:00:01.2/0000:01:00.0/0000:02:08.0/0000:0a:00.3/usb3/3-4/3-4:1.0/0003:056A:0302.0004/hidraw/hidraw3",
  "StackTrace": null,
  "Level": 0,
  "Notification": false
},
{
  "Time": "2024-07-21T11:54:47.6073937-04:00",
  "Group": "Device",
  "Message": "Using report parser type 'OpenTabletDriver.Configurations.Parsers.Wacom.Intuos.IntuosReportParser'",
  "StackTrace": null,
  "Level": 0,
  "Notification": false
},
{
  "Time": "2024-07-21T11:54:47.6098253-04:00",
  "Group": "Device",
  "Message": "Set device feature: 02-02",
  "StackTrace": null,
  "Level": 0,
  "Notification": false
},
{
  "Time": "2024-07-21T11:54:47.6099755-04:00",
  "Group": "Detect",
  "Message": "Found tablet 'Wacom CTH-480'",
  "StackTrace": null,
  "Level": 1,
  "Notification": false
},
{
  "Time": "2024-07-21T11:54:47.6620186-04:00",
  "Group": "Device",
  "Message": "Initializing device 'Intuos PTS' /sys/devices/pci0000:00/0000:00:01.2/0000:01:00.0/0000:02:08.0/0000:0a:00.3/usb3/3-4/3-4:1.1/0003:056A:0302.0005/hidraw/hidraw4",
  "StackTrace": null,
  "Level": 0,
  "Notification": false
},
{
  "Time": "2024-07-21T11:54:47.6620738-04:00",
  "Group": "Device",
  "Message": "Using report parser type 'OpenTabletDriver.Configurations.Parsers.Wacom.Wacom64bAuxReportParser'",
  "StackTrace": null,
  "Level": 0,
  "Notification": false
},
{
  "Time": "2024-07-21T11:54:47.6634447-04:00",
  "Group": "Detect",
  "Message": "Searching for tablet 'Wacom CTH-490'",
  "StackTrace": null,
  "Level": 0,
  "Notification": false
},
{
  "Time": "2024-07-21T11:54:47.6634852-04:00",
  "Group": "Detect",
  "Message": "Searching for tablet 'Wacom CTH-661'",
  "StackTrace": null,
  "Level": 0,
  "Notification": false
},
{
  "Time": "2024-07-21T11:54:47.6635006-04:00",
  "Group": "Detect",
  "Message": "Searching for tablet 'Wacom CTH-670'",
  "StackTrace": null,
  "Level": 0,
  "Notification": false
},
{
  "Time": "2024-07-21T11:54:47.6635138-04:00",
  "Group": "Detect",
  "Message": "Searching for tablet 'Wacom CTH-680'",
  "StackTrace": null,
  "Level": 0,
  "Notification": false
},
{
  "Time": "2024-07-21T11:54:47.663524-04:00",
  "Group": "Detect",
  "Message": "Searching for tablet 'Wacom CTH-690'",
  "StackTrace": null,
  "Level": 0,
  "Notification": false
},
{
  "Time": "2024-07-21T11:54:47.6635382-04:00",
  "Group": "Detect",
  "Message": "Searching for tablet 'Wacom CTL-4100'",
  "StackTrace": null,
  "Level": 0,
  "Notification": false
},
{
  "Time": "2024-07-21T11:54:47.6635483-04:00",
  "Group": "Detect",
  "Message": "Searching for tablet 'Wacom CTL-4100WL'",
  "StackTrace": null,
  "Level": 0,
  "Notification": false
},
{
  "Time": "2024-07-21T11:54:47.6635694-04:00",
  "Group": "Detect",
  "Message": "Searching for tablet 'Wacom CTL-460'",
  "StackTrace": null,
  "Level": 0,
  "Notification": false
},
{
  "Time": "2024-07-21T11:54:47.6635797-04:00",
  "Group": "Detect",
  "Message": "Searching for tablet 'Wacom CTL-470'",
  "StackTrace": null,
  "Level": 0,
  "Notification": false
},
{
  "Time": "2024-07-21T11:54:47.6635896-04:00",
  "Group": "Detect",
  "Message": "Searching for tablet 'Wacom CTL-471'",
  "StackTrace": null,
  "Level": 0,
  "Notification": false
},
{
  "Time": "2024-07-21T11:54:47.6636025-04:00",
  "Group": "Detect",
  "Message": "Searching for tablet 'Wacom CTL-472'",
  "StackTrace": null,
  "Level": 0,
  "Notification": false
},
{
  "Time": "2024-07-21T11:54:47.6636122-04:00",
  "Group": "Detect",
  "Message": "Searching for tablet 'Wacom CTL-480'",
  "StackTrace": null,
  "Level": 0,
  "Notification": false
},
{
  "Time": "2024-07-21T11:54:47.6636258-04:00",
  "Group": "Detect",
  "Message": "Searching for tablet 'Wacom CTL-490'",
  "StackTrace": null,
  "Level": 0,
  "Notification": false
},
{
  "Time": "2024-07-21T11:54:47.6636355-04:00",
  "Group": "Detect",
  "Message": "Searching for tablet 'Wacom CTL-6100'",
  "StackTrace": null,
  "Level": 0,
  "Notification": false
},
{
  "Time": "2024-07-21T11:54:47.6636466-04:00",
  "Group": "Detect",
  "Message": "Searching for tablet 'Wacom CTL-6100WL'",
  "StackTrace": null,
  "Level": 0,
  "Notification": false
},
{
  "Time": "2024-07-21T11:54:47.663657-04:00",
  "Group": "Detect",
  "Message": "Searching for tablet 'Wacom CTL-671'",
  "StackTrace": null,
  "Level": 0,
  "Notification": false
},
{
  "Time": "2024-07-21T11:54:47.663672-04:00",
  "Group": "Detect",
  "Message": "Searching for tablet 'Wacom CTL-672'",
  "StackTrace": null,
  "Level": 0,
  "Notification": false
},
{
  "Time": "2024-07-21T11:54:47.6636818-04:00",
  "Group": "Detect",
  "Message": "Searching for tablet 'Wacom CTL-680'",
  "StackTrace": null,
  "Level": 0,
  "Notification": false
},
{
  "Time": "2024-07-21T11:54:47.6636916-04:00",
  "Group": "Detect",
  "Message": "Searching for tablet 'Wacom CTL-690'",
  "StackTrace": null,
  "Level": 0,
  "Notification": false
},
{
  "Time": "2024-07-21T11:54:47.6637089-04:00",
  "Group": "Detect",
  "Message": "Searching for tablet 'Wacom DTC-133'",
  "StackTrace": null,
  "Level": 0,
  "Notification": false
},
{
  "Time": "2024-07-21T11:54:47.6637194-04:00",
  "Group": "Detect",
  "Message": "Searching for tablet 'Wacom DTH-1320'",
  "StackTrace": null,
  "Level": 0,
  "Notification": false
},
{
  "Time": "2024-07-21T11:54:47.6637306-04:00",
  "Group": "Detect",
  "Message": "Searching for tablet 'Wacom Cintiq 13HD (DTK-1300)'",
  "StackTrace": null,
  "Level": 0,
  "Notification": false
},
{
  "Time": "2024-07-21T11:54:47.6637402-04:00",
  "Group": "Detect",
  "Message": "Searching for tablet 'Wacom Cintiq 16 (DTK1660)'",
  "StackTrace": null,
  "Level": 0,
  "Notification": false
},
{
  "Time": "2024-07-21T11:54:47.6637507-04:00",
  "Group": "Detect",
  "Message": "Searching for tablet 'Wacom Cintiq 12WX (DTZ-1200W)'",
  "StackTrace": null,
  "Level": 0,
  "Notification": false
},
{
  "Time": "2024-07-21T11:54:47.6637633-04:00",
  "Group": "Detect",
  "Message": "Searching for tablet 'Wacom ET-0405-U'",
  "StackTrace": null,
  "Level": 0,
  "Notification": false
},
{
  "Time": "2024-07-21T11:54:47.6637737-04:00",
  "Group": "Detect",
  "Message": "Searching for tablet 'Wacom ET-0405A-U'",
  "StackTrace": null,
  "Level": 0,
  "Notification": false
},
{
  "Time": "2024-07-21T11:54:47.6637864-04:00",
  "Group": "Detect",
  "Message": "Searching for tablet 'Wacom FT-0405-U'",
  "StackTrace": null,
  "Level": 0,
  "Notification": false
},
{
  "Time": "2024-07-21T11:54:47.6637966-04:00",
  "Group": "Detect",
  "Message": "Searching for tablet 'Wacom GD-0405-U'",
  "StackTrace": null,
  "Level": 0,
  "Notification": false
},
{
  "Time": "2024-07-21T11:54:47.6638072-04:00",
  "Group": "Detect",
  "Message": "Searching for tablet 'Wacom GD-0608-U'",
  "StackTrace": null,
  "Level": 0,
  "Notification": false
},
{
  "Time": "2024-07-21T11:54:47.66382-04:00",
  "Group": "Detect",
  "Message": "Searching for tablet 'Wacom GD-0912-U'",
  "StackTrace": null,
  "Level": 0,
  "Notification": false
},
{
  "Time": "2024-07-21T11:54:47.6638301-04:00",
  "Group": "Detect",
  "Message": "Searching for tablet 'Wacom GD-1212-U'",
  "StackTrace": null,
  "Level": 0,
  "Notification": false
},
{
  "Time": "2024-07-21T11:54:47.6638475-04:00",
  "Group": "Detect",
  "Message": "Searching for tablet 'Wacom GD-1218-U'",
  "StackTrace": null,
  "Level": 0,
  "Notification": false
},
{
  "Time": "2024-07-21T11:54:47.6638585-04:00",
  "Group": "Detect",
  "Message": "Searching for tablet 'Wacom MTE-450'",
  "StackTrace": null,
  "Level": 0,
  "Notification": false
},
{
  "Time": "2024-07-21T11:54:47.6638717-04:00",
  "Group": "Detect",
  "Message": "Searching for tablet 'Wacom PTH-450'",
  "StackTrace": null,
  "Level": 0,
  "Notification": false
},
{
  "Time": "2024-07-21T11:54:47.663882-04:00",
  "Group": "Detect",
  "Message": "Searching for tablet 'Wacom PTH-451'",
  "StackTrace": null,
  "Level": 0,
  "Notification": false
},
{
  "Time": "2024-07-21T11:54:47.6638945-04:00",
  "Group": "Detect",
  "Message": "Searching for tablet 'Wacom PTH-460'",
  "StackTrace": null,
  "Level": 0,
  "Notification": false
},
{
  "Time": "2024-07-21T11:54:47.6639047-04:00",
  "Group": "Detect",
  "Message": "Searching for tablet 'Wacom PTH-650'",
  "StackTrace": null,
  "Level": 0,
  "Notification": false
},
{
  "Time": "2024-07-21T11:54:47.663917-04:00",
  "Group": "Detect",
  "Message": "Searching for tablet 'Wacom PTH-651'",
  "StackTrace": null,
  "Level": 0,
  "Notification": false
},
{
  "Time": "2024-07-21T11:54:47.6639271-04:00",
  "Group": "Detect",
  "Message": "Searching for tablet 'Wacom PTH-660'",
  "StackTrace": null,
  "Level": 0,
  "Notification": false
},
{
  "Time": "2024-07-21T11:54:47.6639401-04:00",
  "Group": "Detect",
  "Message": "Searching for tablet 'Wacom PTH-850'",
  "StackTrace": null,
  "Level": 0,
  "Notification": false
},
{
  "Time": "2024-07-21T11:54:47.6639504-04:00",
  "Group": "Detect",
  "Message": "Searching for tablet 'Wacom PTH-851'",
  "StackTrace": null,
  "Level": 0,
  "Notification": false
},
{
  "Time": "2024-07-21T11:54:47.6639601-04:00",
  "Group": "Detect",
  "Message": "Searching for tablet 'Wacom PTH-860'",
  "StackTrace": null,
  "Level": 0,
  "Notification": false
},
{
  "Time": "2024-07-21T11:54:47.6639762-04:00",
  "Group": "Detect",
  "Message": "Searching for tablet 'Wacom PTK-1240'",
  "StackTrace": null,
  "Level": 0,
  "Notification": false
},
{
  "Time": "2024-07-21T11:54:47.6639864-04:00",
  "Group": "Detect",
  "Message": "Searching for tablet 'Wacom PTK-440'",
  "StackTrace": null,
  "Level": 0,
  "Notification": false
},
{
  "Time": "2024-07-21T11:54:47.6639998-04:00",
  "Group": "Detect",
  "Message": "Searching for tablet 'Wacom PTK-450'",
  "StackTrace": null,
  "Level": 0,
  "Notification": false
},
{
  "Time": "2024-07-21T11:54:47.66401-04:00",
  "Group": "Detect",
  "Message": "Searching for tablet 'Wacom PTK-540WL'",
  "StackTrace": null,
  "Level": 0,
  "Notification": false
},
{
  "Time": "2024-07-21T11:54:47.6640229-04:00",
  "Group": "Detect",
  "Message": "Searching for tablet 'Wacom PTK-640'",
  "StackTrace": null,
  "Level": 0,
  "Notification": false
},
{
  "Time": "2024-07-21T11:54:47.6640334-04:00",
  "Group": "Detect",
  "Message": "Searching for tablet 'Wacom PTK-650'",
  "StackTrace": null,
  "Level": 0,
  "Notification": false
},
{
  "Time": "2024-07-21T11:54:47.6640461-04:00",
  "Group": "Detect",
  "Message": "Searching for tablet 'Wacom PTK-840'",
  "StackTrace": null,
  "Level": 0,
  "Notification": false
},
{
  "Time": "2024-07-21T11:54:47.6640558-04:00",
  "Group": "Detect",
  "Message": "Searching for tablet 'Wacom PTU-600U'",
  "StackTrace": null,
  "Level": 0,
  "Notification": false
},
{
  "Time": "2024-07-21T11:54:47.6640647-04:00",
  "Group": "Detect",
  "Message": "Searching for tablet 'Wacom PTZ-1230'",
  "StackTrace": null,
  "Level": 0,
  "Notification": false
},
{
  "Time": "2024-07-21T11:54:47.6640795-04:00",
  "Group": "Detect",
  "Message": "Searching for tablet 'Wacom PTZ-1231W'",
  "StackTrace": null,
  "Level": 0,
  "Notification": false
},
{
  "Time": "2024-07-21T11:54:47.66409-04:00",
  "Group": "Detect",
  "Message": "Searching for tablet 'Wacom PTZ-430'",
  "StackTrace": null,
  "Level": 0,
  "Notification": false
},
{
  "Time": "2024-07-21T11:54:47.6641032-04:00",
  "Group": "Detect",
  "Message": "Searching for tablet 'Wacom PTZ-431W'",
  "StackTrace": null,
  "Level": 0,
  "Notification": false
},
{
  "Time": "2024-07-21T11:54:47.6641128-04:00",
  "Group": "Detect",
  "Message": "Searching for tablet 'Wacom PTZ-630'",
  "StackTrace": null,
  "Level": 0,
  "Notification": false
},
{
  "Time": "2024-07-21T11:54:47.6641252-04:00",
  "Group": "Detect",
  "Message": "Searching for tablet 'Wacom PTZ-631W'",
  "StackTrace": null,
  "Level": 0,
  "Notification": false
},
{
  "Time": "2024-07-21T11:54:47.6641354-04:00",
  "Group": "Detect",
  "Message": "Searching for tablet 'Wacom PTZ-930'",
  "StackTrace": null,
  "Level": 0,
  "Notification": false
},
{
  "Time": "2024-07-21T11:54:47.6641484-04:00",
  "Group": "Detect",
  "Message": "Searching for tablet 'Wacom XD-0405-U'",
  "StackTrace": null,
  "Level": 0,
  "Notification": false
},
{
  "Time": "2024-07-21T11:54:47.6641587-04:00",
  "Group": "Detect",
  "Message": "Searching for tablet 'Wacom XD-0608-U'",
  "StackTrace": null,
  "Level": 0,
  "Notification": false
},
{
  "Time": "2024-07-21T11:54:47.6641689-04:00",
  "Group": "Detect",
  "Message": "Searching for tablet 'Wacom XD-0912-U'",
  "StackTrace": null,
  "Level": 0,
  "Notification": false
},
{
  "Time": "2024-07-21T11:54:47.664182-04:00",
  "Group": "Detect",
  "Message": "Searching for tablet 'Wacom XD-1212-U'",
  "StackTrace": null,
  "Level": 0,
  "Notification": false
},
{
  "Time": "2024-07-21T11:54:47.6641923-04:00",
  "Group": "Detect",
  "Message": "Searching for tablet 'Wacom XD-1218-U'",
  "StackTrace": null,
  "Level": 0,
  "Notification": false
},
{
  "Time": "2024-07-21T11:54:47.6642093-04:00",
  "Group": "Detect",
  "Message": "Searching for tablet 'Waltop Slim Tablet 5.8\"'",
  "StackTrace": null,
  "Level": 0,
  "Notification": false
},
{
  "Time": "2024-07-21T11:54:47.6642191-04:00",
  "Group": "Detect",
  "Message": "Searching for tablet 'XenceLabs Pen Tablet Medium'",
  "StackTrace": null,
  "Level": 0,
  "Notification": false
},
{
  "Time": "2024-07-21T11:54:47.6642287-04:00",
  "Group": "Detect",
  "Message": "Searching for tablet 'XenceLabs Pen Tablet Small'",
  "StackTrace": null,
  "Level": 0,
  "Notification": false
},
{
  "Time": "2024-07-21T11:54:47.6642406-04:00",
  "Group": "Detect",
  "Message": "Searching for tablet 'XENX P1-640'",
  "StackTrace": null,
  "Level": 0,
  "Notification": false
},
{
  "Time": "2024-07-21T11:54:47.664249-04:00",
  "Group": "Detect",
  "Message": "Searching for tablet 'XENX P3-1060'",
  "StackTrace": null,
  "Level": 0,
  "Notification": false
},
{
  "Time": "2024-07-21T11:54:47.6642573-04:00",
  "Group": "Detect",
  "Message": "Searching for tablet 'XENX X1-640'",
  "StackTrace": null,
  "Level": 0,
  "Notification": false
},
{
  "Time": "2024-07-21T11:54:47.6642682-04:00",
  "Group": "Detect",
  "Message": "Searching for tablet 'XP-Pen Artist 10 (2nd Gen)'",
  "StackTrace": null,
  "Level": 0,
  "Notification": false
},
{
  "Time": "2024-07-21T11:54:47.6642777-04:00",
  "Group": "Detect",
  "Message": "Searching for tablet 'XP-Pen Artist 12 (2nd Gen)'",
  "StackTrace": null,
  "Level": 0,
  "Notification": false
},
{
  "Time": "2024-07-21T11:54:47.6642871-04:00",
  "Group": "Detect",
  "Message": "Searching for tablet 'XP-Pen Artist 12 Pro'",
  "StackTrace": null,
  "Level": 0,
  "Notification": false
},
{
  "Time": "2024-07-21T11:54:47.6642959-04:00",
  "Group": "Detect",
  "Message": "Searching for tablet 'XP-Pen Artist 12'",
  "StackTrace": null,
  "Level": 0,
  "Notification": false
},
{
  "Time": "2024-07-21T11:54:47.6643075-04:00",
  "Group": "Detect",
  "Message": "Searching for tablet 'XP-Pen Artist 13 (2nd Gen)'",
  "StackTrace": null,
  "Level": 0,
  "Notification": false
},
{
  "Time": "2024-07-21T11:54:47.664317-04:00",
  "Group": "Detect",
  "Message": "Searching for tablet 'XP-Pen Artist 13.3 Pro'",
  "StackTrace": null,
  "Level": 0,
  "Notification": false
},
{
  "Time": "2024-07-21T11:54:47.6643259-04:00",
  "Group": "Detect",
  "Message": "Searching for tablet 'XP-Pen Artist 13.3'",
  "StackTrace": null,
  "Level": 0,
  "Notification": false
},
{
  "Time": "2024-07-21T11:54:47.6643348-04:00",
  "Group": "Detect",
  "Message": "Searching for tablet 'XP-Pen Artist 15.6 Pro'",
  "StackTrace": null,
  "Level": 0,
  "Notification": false
},
{
  "Time": "2024-07-21T11:54:47.664347-04:00",
  "Group": "Detect",
  "Message": "Searching for tablet 'XP-Pen Artist 15.6'",
  "StackTrace": null,
  "Level": 0,
  "Notification": false
},
{
  "Time": "2024-07-21T11:54:47.6643569-04:00",
  "Group": "Detect",
  "Message": "Searching for tablet 'XP-Pen Artist 16 (2nd Gen)'",
  "StackTrace": null,
  "Level": 0,
  "Notification": false
},
{
  "Time": "2024-07-21T11:54:47.6643661-04:00",
  "Group": "Detect",
  "Message": "Searching for tablet 'XP-Pen Artist 16 Pro'",
  "StackTrace": null,
  "Level": 0,
  "Notification": false
},
{
  "Time": "2024-07-21T11:54:47.664382-04:00",
  "Group": "Detect",
  "Message": "Searching for tablet 'XP-Pen Artist 22HD'",
  "StackTrace": null,
  "Level": 0,
  "Notification": false
},
{
  "Time": "2024-07-21T11:54:47.6643913-04:00",
  "Group": "Detect",
  "Message": "Searching for tablet 'XP-Pen Artist Pro 16TP'",
  "StackTrace": null,
  "Level": 0,
  "Notification": false
},
{
  "Time": "2024-07-21T11:54:47.6644006-04:00",
  "Group": "Detect",
  "Message": "Searching for tablet 'XP-Pen CT1060'",
  "StackTrace": null,
  "Level": 0,
  "Notification": false
},
{
  "Time": "2024-07-21T11:54:47.6644117-04:00",
  "Group": "Detect",
  "Message": "Searching for tablet 'XP-Pen CT430'",
  "StackTrace": null,
  "Level": 0,
  "Notification": false
},
{
  "Time": "2024-07-21T11:54:47.6644216-04:00",
  "Group": "Detect",
  "Message": "Searching for tablet 'XP-Pen CT640'",
  "StackTrace": null,
  "Level": 0,
  "Notification": false
},
{
  "Time": "2024-07-21T11:54:47.6644313-04:00",
  "Group": "Detect",
  "Message": "Searching for tablet 'XP-Pen Deco 01 V2 (variant 2)'",
  "StackTrace": null,
  "Level": 0,
  "Notification": false
},
{
  "Time": "2024-07-21T11:54:47.6644449-04:00",
  "Group": "Detect",
  "Message": "Searching for tablet 'XP-Pen Deco 01 V2'",
  "StackTrace": null,
  "Level": 0,
  "Notification": false
},
{
  "Time": "2024-07-21T11:54:47.664455-04:00",
  "Group": "Detect",
  "Message": "Searching for tablet 'XP-Pen Deco 01'",
  "StackTrace": null,
  "Level": 0,
  "Notification": false
},
{
  "Time": "2024-07-21T11:54:47.6644663-04:00",
  "Group": "Detect",
  "Message": "Searching for tablet 'XP-Pen Deco 02'",
  "StackTrace": null,
  "Level": 0,
  "Notification": false
},
{
  "Time": "2024-07-21T11:54:47.664475-04:00",
  "Group": "Detect",
  "Message": "Searching for tablet 'XP-Pen Deco 03'",
  "StackTrace": null,
  "Level": 0,
  "Notification": false
},
{
  "Time": "2024-07-21T11:54:47.6644835-04:00",
  "Group": "Detect",
  "Message": "Searching for tablet 'XP-Pen Deco L'",
  "StackTrace": null,
  "Level": 0,
  "Notification": false
},
{
  "Time": "2024-07-21T11:54:47.6644946-04:00",
  "Group": "Detect",
  "Message": "Searching for tablet 'XP-Pen Deco M'",
  "StackTrace": null,
  "Level": 0,
  "Notification": false
},
{
  "Time": "2024-07-21T11:54:47.6645035-04:00",
  "Group": "Detect",
  "Message": "Searching for tablet 'XP-Pen Deco mini4'",
  "StackTrace": null,
  "Level": 0,
  "Notification": false
},
{
  "Time": "2024-07-21T11:54:47.6645122-04:00",
  "Group": "Detect",
  "Message": "Searching for tablet 'XP-Pen Deco mini7'",
  "StackTrace": null,
  "Level": 0,
  "Notification": false
},
{
  "Time": "2024-07-21T11:54:47.6645293-04:00",
  "Group": "Detect",
  "Message": "Searching for tablet 'XP-Pen Deco Pro Medium'",
  "StackTrace": null,
  "Level": 0,
  "Notification": false
},
{
  "Time": "2024-07-21T11:54:47.6645385-04:00",
  "Group": "Detect",
  "Message": "Searching for tablet 'XP-Pen Deco Pro Small'",
  "StackTrace": null,
  "Level": 0,
  "Notification": false
},
{
  "Time": "2024-07-21T11:54:47.6645476-04:00",
  "Group": "Detect",
  "Message": "Searching for tablet 'XP-Pen Deco Pro SW'",
  "StackTrace": null,
  "Level": 0,
  "Notification": false
},
{
  "Time": "2024-07-21T11:54:47.6645614-04:00",
  "Group": "Detect",
  "Message": "Searching for tablet 'XP-Pen Innovator 16'",
  "StackTrace": null,
  "Level": 0,
  "Notification": false
},
{
  "Time": "2024-07-21T11:54:47.6645705-04:00",
  "Group": "Detect",
  "Message": "Searching for tablet 'XP-Pen Star 03'",
  "StackTrace": null,
  "Level": 0,
  "Notification": false
},
{
  "Time": "2024-07-21T11:54:47.6645842-04:00",
  "Group": "Detect",
  "Message": "Searching for tablet 'XP-Pen Star 05 V3'",
  "StackTrace": null,
  "Level": 0,
  "Notification": false
},
{
  "Time": "2024-07-21T11:54:47.6645931-04:00",
  "Group": "Detect",
  "Message": "Searching for tablet 'XP-Pen Star 06'",
  "StackTrace": null,
  "Level": 0,
  "Notification": false
},
{
  "Time": "2024-07-21T11:54:47.6646018-04:00",
  "Group": "Detect",
  "Message": "Searching for tablet 'XP-Pen Star 06C'",
  "StackTrace": null,
  "Level": 0,
  "Notification": false
},
{
  "Time": "2024-07-21T11:54:47.6646103-04:00",
  "Group": "Detect",
  "Message": "Searching for tablet 'XP-Pen Star G430'",
  "StackTrace": null,
  "Level": 0,
  "Notification": false
},
{
  "Time": "2024-07-21T11:54:47.6646263-04:00",
  "Group": "Detect",
  "Message": "Searching for tablet 'XP-Pen Star G430S V2'",
  "StackTrace": null,
  "Level": 0,
  "Notification": false
},
{
  "Time": "2024-07-21T11:54:47.6646354-04:00",
  "Group": "Detect",
  "Message": "Searching for tablet 'XP-Pen Star G430S'",
  "StackTrace": null,
  "Level": 0,
  "Notification": false
},
{
  "Time": "2024-07-21T11:54:47.6646442-04:00",
  "Group": "Detect",
  "Message": "Searching for tablet 'XP-Pen Star G540 Pro'",
  "StackTrace": null,
  "Level": 0,
  "Notification": false
},
{
  "Time": "2024-07-21T11:54:47.6646559-04:00",
  "Group": "Detect",
  "Message": "Searching for tablet 'XP-Pen Star G540'",
  "StackTrace": null,
  "Level": 0,
  "Notification": false
},
{
  "Time": "2024-07-21T11:54:47.6646649-04:00",
  "Group": "Detect",
  "Message": "Searching for tablet 'XP-Pen Star G640 V2'",
  "StackTrace": null,
  "Level": 0,
  "Notification": false
},
{
  "Time": "2024-07-21T11:54:47.6646738-04:00",
  "Group": "Detect",
  "Message": "Searching for tablet 'XP-Pen Star G640'",
  "StackTrace": null,
  "Level": 0,
  "Notification": false
},
{
  "Time": "2024-07-21T11:54:47.6646856-04:00",
  "Group": "Detect",
  "Message": "Searching for tablet 'XP-Pen Star G640S'",
  "StackTrace": null,
  "Level": 0,
  "Notification": false
},
{
  "Time": "2024-07-21T11:54:47.6647005-04:00",
  "Group": "Detect",
  "Message": "Searching for tablet 'XP-Pen Star G960'",
  "StackTrace": null,
  "Level": 0,
  "Notification": false
},
{
  "Time": "2024-07-21T11:54:47.6647121-04:00",
  "Group": "Detect",
  "Message": "Searching for tablet 'XP-Pen Star G960S Plus'",
  "StackTrace": null,
  "Level": 0,
  "Notification": false
},
{
  "Time": "2024-07-21T11:54:47.6647211-04:00",
  "Group": "Detect",
  "Message": "Searching for tablet 'XP-Pen Star G960S'",
  "StackTrace": null,
  "Level": 0,
  "Notification": false
},
{
  "Time": "2024-07-21T11:54:47.9531395-04:00",
  "Group": "Evdev",
  "Message": "Successfully initialized virtual pressure sensitive tablet. (code NONE)",
  "StackTrace": null,
  "Level": 0,
  "Notification": false
},
{
  "Time": "2024-07-21T11:54:47.956757-04:00",
  "Group": "Wacom CTH-480",
  "Message": "Output mode: Artist Mode",
  "StackTrace": null,
  "Level": 1,
  "Notification": false
},
{
  "Time": "2024-07-21T11:54:47.9588223-04:00",
  "Group": "Wacom CTH-480",
  "Message": "Display area: [5120x1440@<2560, 720>:0°],",
  "StackTrace": null,
  "Level": 1,
  "Notification": false
},
{
  "Time": "2024-07-21T11:54:47.9589466-04:00",
  "Group": "Wacom CTH-480",
  "Message": "Tablet area: [74x41.625@<37, 20.8125>:0°],",
  "StackTrace": null,
  "Level": 1,
  "Notification": false
},
{
  "Time": "2024-07-21T11:54:47.9590209-04:00",
  "Group": "Wacom CTH-480",
  "Message": "Clipping: Enabled",
  "StackTrace": null,
  "Level": 1,
  "Notification": false
},
{
  "Time": "2024-07-21T11:54:47.9590793-04:00",
  "Group": "Wacom CTH-480",
  "Message": "Ignoring reports outside area: Disabled",
  "StackTrace": null,
  "Level": 1,
  "Notification": false
},
{
  "Time": "2024-07-21T11:54:47.963564-04:00",
  "Group": "Wacom CTH-480",
  "Message": "Tip Binding: [Mouse Button Binding: Left]@0%",
  "StackTrace": null,
  "Level": 1,
  "Notification": false
},
{
  "Time": "2024-07-21T11:54:47.9726892-04:00",
  "Group": "Wacom CTH-480",
  "Message": "Filters: TabletDriverFilters.Hawku.Smoothing, OpenTabletDriver.Plugin.NoiseReduction",
  "StackTrace": null,
  "Level": 1,
  "Notification": false
},
{
  "Time": "2024-07-21T11:54:47.9727626-04:00",
  "Group": "Settings",
  "Message": "Driver is enabled.",
  "StackTrace": null,
  "Level": 1,
  "Notification": false
},
