{
    "layer": "top",
    "position": "top",
    "mod": "dock",
    "exclusive": true,
    "passtrough": false,
    "gtk-layer-shell": true,
    "height": 0,
    "modules-left": [
        "hyprland/workspaces",
        "mpris"
    ],
    "modules-center": [
        "hyprland/window"
    ],
    "modules-right": [
//        "tray",
        "cpu",
        "memory",
        "network",
        "clock"
    ],
    "hyprland/window": {
        "format": "{}",
        "max-length": 50
    },
    "hyprland/workspaces": {

        "on-click": "activate",
        "format": "{icon}",
        "format-icons": {
            "default": "<span size='large'></span> ",
            "active": "<span size='large'></span> ",
            "urgent": "<span size='large'></span> ",
            "empty": "<span size='large'></span> "
        },
        "persistent-workspaces": {
            "DP-1": 5
        }
    },
    "cpu": {
        "interval": 5,
        "format": "  {usage}%",
        "max-length": 10
    },
    "memory": {
        "interval": 5,
        "format": "  {used:0.1f}G/{total:0.1f}G"
    },
    "mpris": {
        "format": "{player_icon} {title} | {artist}",
        "format-paused": "{status_icon} {title} | {artist}",
        "player-icons": {
            "default": "▶"
        },
        "status-icons": {
            "paused": "󰏤"
        },
        "ignored-players": ["firefox", "chromium", "brave"],
        "interval": 1,
        "max-length": 50
    },
    "clock": {
        "format": "󰃭  {:%D  󰥔  %I:%M %p}",
    },
    "network": {
        "format": "  {bandwidthTotalBytes}",
        "format-ethernet": "󰈀  {bandwidthTotalBytes}",
        "format-disconnected": "󰈂 ",
        "max-length": 50,
        "interval": 3
    },
    "tray": {
        "spacing": 6,
        "icon-size": 16
    },
}
